<?xml version="1.0" encoding="utf-8"?>
<!-- Generator: Adobe Illustrator 25.4.1, SVG Export Plug-In . SVG Version: 6.00 Build 0)  -->
<svg version="1.1" id="Layer_1" xmlns="http://www.w3.org/2000/svg" xmlns:xlink="http://www.w3.org/1999/xlink" x="0px" y="0px"
	 width="987px" height="244.4px" viewBox="0 0 987 244.4" style="enable-background:new 0 0 987 244.4;" xml:space="preserve">
<style type="text/css">
	.st0{clip-path:url(#SVGID_00000135685020332960469900000018031830786314588855_);}
</style>
<rect x="5.5" y="45.2" width="424.6" height="5.4"/>
<rect x="834.2" y="202.6" width="147.3" height="5.4"/>
<rect x="5.5" y="202.6" width="147.3" height="5.4"/>
<rect x="554.5" y="45.2" width="427" height="5.4"/>
<g>
	<defs>
		<rect id="SVGID_1_" width="987" height="244.4"/>
	</defs>
	<clipPath id="SVGID_00000057856848158338918030000009204872214198287520_">
		<use xlink:href="#SVGID_1_"  style="overflow:visible;"/>
	</clipPath>
	<path style="clip-path:url(#SVGID_00000057856848158338918030000009204872214198287520_);" d="M28,100.1c0-1,0.8-1.8,1.8-1.8h8.9
		c1,0,1.8,0.9,1.8,1.8v54.2h24.6c1.1,0,1.8,0.9,1.8,1.8v7.9c0,1-0.8,1.8-1.8,1.8H29.9c-1.1,0-1.8-0.9-1.8-1.8V100.1z"/>
	<path style="clip-path:url(#SVGID_00000057856848158338918030000009204872214198287520_);" d="M153.6,100.6c0-1.3,1-2.3,2.3-2.3
		h8.5c1.3,0,2.3,1.1,2.3,2.3v26.1L191,99.2c0.4-0.5,1-1,1.8-1h9.7c1.8,0,2.8,2,1.5,3.5l-25.2,28.4l27,32.3c1,1.3,0.2,3.4-1.7,3.4
		h-10.5c-1,0-1.5-0.4-1.7-0.7l-25.2-31.1v29.4c0,1.3-1.1,2.3-2.3,2.3h-8.5c-1.4,0-2.3-1.1-2.3-2.3V100.6z"/>
	<path style="clip-path:url(#SVGID_00000057856848158338918030000009204872214198287520_);" d="M221.3,100.1c0-1,0.8-1.8,1.8-1.8
		h39.3c1.1,0,1.8,0.9,1.8,1.8v7.9c0,1-0.8,1.8-1.8,1.8h-28.6v15.8h23.8c1,0,1.8,0.9,1.8,1.8v8c0,1.1-0.9,1.8-1.8,1.8h-23.8v16.9
		h28.6c1.1,0,1.8,0.9,1.8,1.8v7.9c0,1-0.8,1.8-1.8,1.8h-39.3c-1.1,0-1.8-0.9-1.8-1.8V100.1z"/>
	<path style="clip-path:url(#SVGID_00000057856848158338918030000009204872214198287520_);" d="M292,109.8h-14.8
		c-1.1,0-1.8-0.9-1.8-1.8v-7.9c0-1,0.8-1.8,1.8-1.8h42.2c1.1,0,1.8,0.9,1.8,1.8v7.9c0,1-0.8,1.8-1.8,1.8h-14.8V164
		c0,1-0.9,1.8-1.8,1.8h-9c-1,0-1.8-0.9-1.8-1.8V109.8z"/>
	<path style="clip-path:url(#SVGID_00000057856848158338918030000009204872214198287520_);" d="M411,100.6c-0.4-1.4,0.4-2.3,1.7-2.3
		h8.9c0.8,0,1.5,0.7,1.7,1.4l10,38.5h0.4l15.4-39.8c0.2-0.6,0.7-1.1,1.6-1.1h1.7c1,0,1.4,0.5,1.6,1.1l15.4,39.8h0.4l9.8-38.5
		c0.2-0.7,1-1.4,1.7-1.4h8.9c1.4,0,2.1,1,1.7,2.3L474,165.5c-0.2,0.8-1,1.4-1.7,1.4h-1.5c-0.9,0-1.4-0.5-1.6-1.1L451.8,122h-0.5
		l-17.1,43.7c-0.3,0.6-0.7,1.1-1.6,1.1H431c-0.8,0-1.5-0.6-1.7-1.4L411,100.6z"/>
	<path style="clip-path:url(#SVGID_00000057856848158338918030000009204872214198287520_);" d="M508.4,99c0-1,0.9-1.7,1.8-1.7h2.4
		l40.2,42.7h0.1v-39.9c0-1,0.8-1.8,1.8-1.8h8.9c1,0,1.8,0.9,1.8,1.8v65c0,1-0.9,1.7-1.8,1.7h-2.3l-40.4-44.3h-0.1V164
		c0,1-0.8,1.8-1.8,1.8h-8.8c-1,0-1.8-0.9-1.8-1.8V99z"/>
	<path style="clip-path:url(#SVGID_00000057856848158338918030000009204872214198287520_);" d="M614,100.1c0-1,0.8-1.8,1.8-1.8h27.6
		c11.6,0,21,9.3,21,20.8c0,8.9-5.9,16.1-14.3,19.5l13.2,24.5c0.7,1.3,0,2.8-1.6,2.8h-10.1c-0.9,0-1.4-0.5-1.5-0.9l-12.8-25.6h-10.7
		V164c0,1-0.9,1.8-1.8,1.8h-8.9c-1.1,0-1.8-0.9-1.8-1.8V100.1z M642.4,129c5.1,0,9.6-4.4,9.6-9.8c0-5.1-4.4-9.4-9.6-9.4h-15.7V129
		H642.4z"/>
	<path style="clip-path:url(#SVGID_00000057856848158338918030000009204872214198287520_);" d="M752,99c0-1,0.9-1.7,1.8-1.7h2.4
		l40.2,42.7h0.1v-39.9c0-1,0.8-1.8,1.8-1.8h8.9c1,0,1.8,0.9,1.8,1.8v65c0,1-0.9,1.7-1.8,1.7h-2.3l-40.4-44.3h-0.1V164
		c0,1-0.8,1.8-1.8,1.8h-8.8c-1,0-1.8-0.9-1.8-1.8V99z"/>
	<path style="clip-path:url(#SVGID_00000057856848158338918030000009204872214198287520_);" d="M861.4,97.3c9.8,0,16.8,3.1,23.4,9
		c0.9,0.8,0.9,1.9,0.1,2.7l-5.9,6.1c-0.7,0.8-1.6,0.8-2.4,0c-4.1-3.6-9.5-5.7-14.9-5.7c-12.4,0-21.5,10.3-21.5,22.5
		c0,12.1,9.3,22.3,21.6,22.3c5.8,0,10.7-2.2,14.8-5.5c0.8-0.7,1.8-0.6,2.4,0l6,6.2c0.8,0.7,0.6,1.9-0.1,2.6
		c-6.6,6.4-14.9,9.4-23.5,9.4c-19.3,0-34.9-15.4-34.9-34.7C826.5,112.8,842,97.3,861.4,97.3"/>
	<path style="clip-path:url(#SVGID_00000057856848158338918030000009204872214198287520_);" d="M902.3,100.1c0-1,0.9-1.8,1.8-1.8h9
		c1.1,0,1.8,0.9,1.8,1.8v25.6h31.5v-25.6c0-1,0.8-1.8,1.8-1.8h8.9c1,0,1.8,0.9,1.8,1.8V164c0,1-0.9,1.8-1.8,1.8h-8.9
		c-1.1,0-1.8-0.9-1.8-1.8v-26.6h-31.5V164c0,1-0.8,1.8-1.8,1.8h-9c-1,0-1.8-0.9-1.8-1.8V100.1z"/>
	<path style="clip-path:url(#SVGID_00000057856848158338918030000009204872214198287520_);" d="M733.9,104.9h-5.5v1.9h5.5v5.7h-5.5
		v1.9h5.5v5.7h-5.5v1.9h5.5v5.7h-5.5v1.9h5.5v5.7h-5.5v1.9h5.5v5.7h-5.5v1.9h5.5v5.7h-5.4v1.9h5.5v5.7h-5.5v1.9h5.4
		c0,0.2,0.1,0.4,0.1,0.5c0,1.3,0,2.5,0,3.8c0,1-0.5,1.5-1.5,1.5c-0.1,0-0.3,0-0.4,0c-18.6,0-37.1,0-55.7,0c-0.1,0-0.2,0-0.3,0
		c-0.6,0-1.1-0.2-1.4-0.8c-0.3-0.6-0.1-1.1,0.3-1.6c1.8-2.1,3.6-4.2,5.4-6.2c10.5-12.2,20.9-24.3,31.4-36.5
		c6.5-7.6,13.1-15.2,19.6-22.8c0.4-0.5,0.9-0.8,1.6-0.6c0.7,0.3,0.9,0.8,0.9,1.5C733.9,100.8,733.9,102.8,733.9,104.9 M697.7,154.4
		h25v-29C714.3,135,706.1,144.6,697.7,154.4"/>
	<path style="clip-path:url(#SVGID_00000057856848158338918030000009204872214198287520_);" d="M127.1,165c-0.1,0.1-0.2,0.1-0.3,0.2
		c-2.1,1.4-5.1,0.3-5.7-2.1c-0.2-0.6-0.1-1.2,0-1.9c0.2-1.7,0.4-3.4,0.4-5.1c0.1-2.9-0.3-5.8-0.9-8.7c-0.8-3.4-2.1-6.7-3.9-9.7
		c-0.4-0.7-0.4-0.9,0.2-1.6c-1.6-2.3-3.3-4.5-5-6.8c-1.2,0.7-2.4,1-3.8,1c-1.3,0-2.6-0.5-3.7-1.3c-0.3,0.4-0.5,0.8-0.7,1.2
		c-1.1,1.9-2.3,3.8-3.4,5.7c-0.1,0.2-0.1,0.3,0,0.5c0.3,0.3,0.3,0.7,0,1c-1,1.7-1.8,3.4-2.5,5.1c-2.3,6.1-2.9,12.4-1.9,18.9
		c0.2,1.4-0.2,2.7-1.4,3.6c-1.2,0.9-2.5,1.1-3.9,0.5c-1.2-0.6-2-1.6-2.2-2.9c-0.2-1.1-0.3-2.1-0.4-3.2c-0.2-1.8-0.2-3.6-0.2-5.4
		c0.2-5.4,1.3-10.6,3.4-15.5c0.3-0.7,0.3-1.3,0.1-1.9c-0.5-1.7,0.5-3.3,2.2-3.6c0.4-0.1,0.7,0,1,0.3c0.3-0.4,0.5-0.8,0.8-1.1
		c0.5-0.8,1-1.7,1.5-2.5c0.6-0.9,1.1-1.9,1.7-2.8c0.7-1.1,1.4-2.2,2.1-3.3c0.1-0.1,0.1-0.2,0-0.3c-0.7-2.5-1.4-5-2.1-7.6
		c-0.3-1.2-0.6-2.3-0.9-3.5c0-0.1-0.1-0.2-0.1-0.4c-0.2-0.7-0.2-1.3,0-2c1-2.6,1.9-5.2,2.8-7.8c0.2-0.6,0.5-1.2,0.8-1.8
		c0.1-0.2,0.4-0.4,0.6-0.5c0.8-0.3,1.6-0.6,2.3-0.9c0.4-0.1,0.6,0,0.6,0.4c0.4,2.2,0.9,4.4,1.3,6.5c0.1,0.3,0,0.6-0.3,0.7
		c-1.7,0.6-2.5,2.8-1.8,4.6c0.2,0.4,0.4,0.8,0.7,1.1c0.5,0.6,1.2,0.8,2,0.7c0.5-0.1,0.6,0,0.7,0.5c0.2,1.1,0.4,2.2,0.6,3.3
		c0,0.1,0,0.2,0.1,0.3c0.1-0.6,0.2-1.2,0.3-1.9c0.1-0.6,0.2-1.3,0.3-1.9c0.1-0.4,0.2-0.5,0.6-0.4c1.1,0.2,1.9-0.3,2.5-1.2
		c0.9-1.5,0.7-3.4-0.5-4.5c-0.3-0.3-0.6-0.4-1-0.6c-0.4-0.2-0.5-0.3-0.4-0.7c0.3-1.5,0.6-3,0.9-4.6c0.1-0.7,0.3-1.3,0.4-2
		c0.1-0.3,0.2-0.4,0.6-0.3c0.9,0.3,1.7,0.6,2.6,1c0.1,0.1,0.2,0.2,0.4,0.4c0.3,0.7,0.6,1.4,0.9,2.1c1,2.7,2,5.4,2.9,8.1
		c0.1,0.3,0.1,0.7,0,1.1c-0.2,0.8-0.4,1.6-0.6,2.4c-0.8,3.2-1.7,6.3-2.5,9.5c-0.2,0.6-0.1,1.2,0.3,1.7c0.8,1.1,1.6,2.2,2.4,3.4
		c0.8,1.1,1.7,2.2,2.5,3.4c0.3,0.5,0.7,0.9,1,1.3c0.1,0.1,0.3,0.2,0.4,0.2c0.5-0.2,0.9,0,1.3,0.1c1.4,0.6,2,2,1.6,3.4
		c-0.2,0.7-0.1,1.3,0.1,2c0.6,1.6,1.3,3.2,1.7,4.8c1.6,5.5,2.1,11.1,1.5,16.8c-0.2,1.5-0.2,3-1.1,4.3
		C127.5,164.6,127.3,164.8,127.1,165 M111.1,120.3c-1.5-1.5-4-1.5-5.5,0c-1.5,1.5-1.5,4,0,5.5c1.5,1.5,4,1.5,5.5,0
		C112.6,124.3,112.6,121.9,111.1,120.3"/>
	<path style="clip-path:url(#SVGID_00000057856848158338918030000009204872214198287520_);" d="M110.2,121.2c1,1,1,2.7,0,3.7
		c-1,1-2.7,1-3.7,0c-1-1-1-2.7,0-3.7C107.6,120.2,109.2,120.2,110.2,121.2"/>
	<path style="clip-path:url(#SVGID_00000057856848158338918030000009204872214198287520_);" d="M358,103.6c2.5-2.4,4.9-4.5,7.8-5.9
		c0.8-0.4,1.7-0.7,2.5-0.9c2.1-0.4,3.7,0.4,5.1,1.9c2.1,2.3,3.4,5,4.4,7.9c1.6,4.6,2.5,9.4,3,14.3c0.8,7.4,0.8,14.8-0.2,22.2
		c-0.6,4.9-1.6,9.8-3.5,14.4c-0.8,2.1-1.8,4.1-3.3,5.8c-0.6,0.7-1.3,1.3-2,1.8c-1.3,0.9-2.8,1-4.3,0.5c-1.8-0.5-3.3-1.4-4.8-2.4
		c-2.1-1.5-4-3.3-5.7-5.2c-5.1-5.5-8.7-11.8-10.4-19.1c-1.8-7.8-0.9-15.4,2.5-22.7C351.4,111.5,354.4,107.2,358,103.6 M366.9,105.4
		c-1.2,1.2-2.1,2.6-2.7,4.1c-1.2,3-2,6.2-2.5,9.4c-1.3,8.2-1.3,16.5,0,24.7c0.5,3.5,1.4,6.9,2.8,10.1c0.6,1.3,1.4,2.6,2.5,3.6
		c1.5,1.5,3.2,1.5,4.8,0c0.9-0.9,1.6-1.9,2.1-3c1.5-3,2.3-6.2,2.9-9.4c1.5-8.8,1.6-17.5,0.2-26.3c-0.5-3.2-1.3-6.4-2.6-9.4
		c-0.7-1.6-1.5-3.1-2.8-4.3c-1.3-1.2-3.1-1.2-4.4,0C367.1,105.2,367,105.3,366.9,105.4"/>
	<path style="clip-path:url(#SVGID_00000057856848158338918030000009204872214198287520_);" d="M348.8,109.7
		c-3.9,6.7-6.4,13.8-6.4,21.6c0,7.8,2.5,14.8,6.3,21.5c0,0-0.1,0.1-0.1,0.1c-0.2-0.1-0.4-0.2-0.6-0.3c-4-2.3-7.7-4.9-10.8-8.4
		c-2-2.3-3.7-4.8-4.7-7.7c-1.4-3.9-1.2-7.7,0.4-11.5c1.1-2.5,2.6-4.8,4.5-6.8c3.2-3.4,6.8-6.2,11-8.4c0.1-0.1,0.2-0.1,0.4-0.2
		C348.7,109.7,348.7,109.7,348.8,109.7"/>
	<path style="clip-path:url(#SVGID_00000057856848158338918030000009204872214198287520_);" d="M391.6,114.4
		c-1.1,1.1-2.4,2.3-3.7,3.4c-0.7,0.7-1.7,0.7-2.6,0.1c-0.6-0.4-1-1.5-0.7-2.3c0.1-0.2,0.2-0.4,0.3-0.5c2.6-2.5,5.2-5.1,7.8-7.6
		c0.7-0.7,1.5-0.7,2.3-0.2c0.7,0.4,1.1,1.2,1,2c-0.1,0.5-0.3,1-0.7,1.4C394.2,111.9,393,113.1,391.6,114.4"/>
	<path style="clip-path:url(#SVGID_00000057856848158338918030000009204872214198287520_);" d="M404.1,129.9
		c0.6,0.6,0.7,1.4,0.5,2.2c-0.3,0.8-0.9,1.3-1.7,1.3c-3.5,0-7,0-10.4,0c-0.1,0-0.3,0-0.4,0c-0.8-0.1-1.4-0.4-1.7-1.1
		c-0.3-0.8-0.1-1.5,0.4-2.2c0.3-0.4,0.7-0.6,1.2-0.6c2.8-0.1,5.6-0.1,8.4-0.2c0.8,0,1.6,0,2.4,0.1
		C403.3,129.4,403.8,129.5,404.1,129.9"/>
	<path style="clip-path:url(#SVGID_00000057856848158338918030000009204872214198287520_);" d="M391.5,148.4
		c1.4,1.4,2.8,2.7,4.1,4.1c0.7,0.7,0.6,1.8-0.1,2.5c-0.6,0.7-1.7,0.9-2.5,0.4c-0.7-0.5-1.3-1-1.8-1.6c-1.8-1.8-3.6-3.6-5.4-5.4
		c-0.3-0.3-0.5-0.5-0.7-0.8c-0.6-0.7-0.6-1.6-0.1-2.5c0.4-0.6,1.3-1,2.1-0.8c0.3,0.1,0.5,0.2,0.7,0.4
		C389,145.9,390.3,147.2,391.5,148.4C391.5,148.4,391.5,148.4,391.5,148.4"/>
	<path style="clip-path:url(#SVGID_00000057856848158338918030000009204872214198287520_);" d="M370,139c-1.5,1.5-3.3,2.1-5.4,2
		c-0.7,0-0.8-0.1-0.9-0.8c-0.5-2.4-0.6-4.8-0.7-7.3c-0.1-3.3,0.1-6.6,0.5-9.8c0.2-1.3,0.3-1.4,1.7-1.4c1.8,0,3.3,0.8,4.6,2
		c1.7,1.5,2.4,3.5,2.8,5.6c0.6,3.3,0,6.4-2.1,9.2C370.4,138.6,370.2,138.8,370,139"/>
	<path style="clip-path:url(#SVGID_00000057856848158338918030000009204872214198287520_);" d="M455.3,17.8c2.2,2.2,4.2,4.2,6.2,6.3
		c2.7,2.7,6.9,2.9,9.9,0.7c3.7-2.7,4.2-8.1,1-11.4c-1.8-1.9-3.8-3.8-5.6-5.7c-0.2-0.2-0.4-0.3-0.8-0.6c1.8-0.6,3.5-0.7,5.2-0.6
		c6.4,0.5,11.7,4.8,13.5,10.9c0.7,2.4,0.9,4.9,0.3,7.4c-0.2,0.7,0.2,1.1,0.6,1.5c14.4,14.4,28.8,28.8,43.3,43.2
		c1.5,1.5,2.7,3.1,3,5.2c0.7,4-2.1,8.2-6.2,8.9c-3,0.6-5.4-0.4-7.6-2.5c-14.6-14.6-29.1-29.1-43.7-43.7c-0.6-0.6-1-0.7-1.8-0.5
		c-8.5,1.6-16.8-4.4-17.9-13.1C454.7,21.9,454.8,19.9,455.3,17.8 M521.1,75.9c0,1.8,1.4,3.2,3.1,3.2c1.7,0,3.2-1.5,3.2-3.1
		c0-1.7-1.4-3.2-3.1-3.2C522.5,72.8,521.1,74.2,521.1,75.9"/>
	<path style="clip-path:url(#SVGID_00000057856848158338918030000009204872214198287520_);" d="M480.6,46.9c0.9,0.9,1.8,1.7,2.8,2.7
		c-2.3,2.2-4.5,4.4-6.7,6.6c-5.3,5.3-10.7,10.7-16,16c-0.8,0.8-0.8,1.3-0.3,1.9c0.5,0.5,1.1,0.5,1.8-0.2c2.1-2,4.1-4.1,6.2-6.2
		c5.4-5.4,10.9-10.9,16.3-16.3c0.1-0.1,0.1-0.1,0.2-0.2c0.8,0.9,1.6,1.7,2.5,2.7c-1.7,1.6-3.5,3.4-5.3,5.2
		c-5.8,5.8-11.5,11.5-17.3,17.3c-0.3,0.3-0.6,0.8-0.6,1.2c0,0.3,0.4,0.8,0.7,0.9c0.4,0,1-0.1,1.3-0.4c2.7-2.6,5.3-5.3,8-7.9
		c4.8-4.8,9.6-9.6,14.4-14.4c0.1-0.1,0.3-0.2,0.4-0.4c0.9,0.9,1.7,1.8,2.6,2.8c-1.8,1.8-3.7,3.7-5.6,5.6c-6,6-12,12-18,18
		c-1.5,1.5-3.4,2.3-5.6,2.3c-3.2,0-6-1.9-7.3-4.8c-1.2-2.9-0.6-6.4,1.6-8.6c5.5-5.5,10.9-10.9,16.4-16.4
		C475.7,51.8,478.2,49.3,480.6,46.9"/>
	<path style="clip-path:url(#SVGID_00000057856848158338918030000009204872214198287520_);" d="M502.7,39.8
		c-1.3-1.3-2.6-2.5-3.9-3.8c3.2-3.2,6.5-6.4,9.7-9.7c2.7-2.7,5.4-5.4,8.1-8.1c0.2-0.3,0.5-0.6,0.6-0.9c1.4-2.9,3.3-5.3,6-7.1
		c1.8-1.2,3.5-2.6,5.2-3.9c1.3,1.3,2.6,2.6,4,3.9c-2.1,2.6-4,5.4-6.3,7.9c-1.2,1.4-3.1,2.2-4.7,3.2c-0.4,0.3-0.9,0.5-1.2,0.9
		C514.4,28.1,508.5,33.9,502.7,39.8"/>
	<path style="clip-path:url(#SVGID_00000057856848158338918030000009204872214198287520_);" d="M205.5,220.1
		c-1.7,1.5-3.6,2.8-5.7,3.6c-2.1,0.9-4.3,1.3-6.7,1.3c-2.6,0-5.1-0.5-7.4-1.4c-2.3-1-4.4-2.3-6.1-4c-1.8-1.7-3.2-3.7-4.2-6
		c-1-2.3-1.5-4.8-1.5-7.5c0-1.7,0.2-3.3,0.6-4.9c0.4-1.6,1-3.1,1.7-4.4c0.8-1.4,1.7-2.6,2.8-3.8c1.1-1.2,2.3-2.1,3.6-3
		c1.3-0.8,2.8-1.5,4.4-1.9c1.6-0.5,3.2-0.7,5-0.7c1.6,0,3.1,0.2,4.6,0.6c1.5,0.4,2.9,1,4.2,1.8c1.3,0.8,2.5,1.7,3.6,2.8
		c1.1,1.1,2,2.2,2.8,3.5c0.8,1.3,1.4,2.6,1.8,4.1c0.4,1.4,0.6,2.9,0.6,4.5c0,1,0,1.8,0,2.4c0,0.6-0.2,1.1-0.4,1.5
		c-0.3,0.4-0.7,0.6-1.3,0.8c-0.6,0.1-1.5,0.2-2.7,0.2h-20.6c0.2,1.2,0.6,2.2,1.2,3.1c0.6,0.8,1.3,1.5,2,2c0.8,0.5,1.6,0.8,2.4,1
		c0.9,0.2,1.7,0.3,2.4,0.3c0.7,0,1.4-0.1,2.1-0.2c0.7-0.1,1.4-0.3,2.1-0.6s1.3-0.5,1.9-0.8c0.6-0.3,1-0.6,1.4-1
		c0.3-0.2,0.6-0.4,0.8-0.6c0.2-0.1,0.5-0.2,0.7-0.2c0.2,0,0.5,0.1,0.8,0.3c0.3,0.2,0.5,0.4,0.9,0.7l3,3.4c0.2,0.2,0.3,0.5,0.4,0.7
		c0.1,0.2,0.1,0.4,0.1,0.6c0,0.4-0.1,0.7-0.3,1C206,219.7,205.8,219.9,205.5,220.1 M191.7,196.3c-0.7,0-1.5,0.1-2.2,0.4
		c-0.7,0.3-1.4,0.7-2,1.2c-0.6,0.5-1.2,1.1-1.6,1.7c-0.5,0.6-0.9,1.3-1.2,1.9h14.7c-0.4-0.7-0.8-1.4-1.3-2.1c-0.5-0.6-1-1.2-1.6-1.7
		c-0.6-0.5-1.3-0.9-2.1-1.1C193.6,196.4,192.7,196.3,191.7,196.3"/>
	<path style="clip-path:url(#SVGID_00000057856848158338918030000009204872214198287520_);" d="M241.2,220.1
		c-0.5,0.5-1.1,1.1-1.7,1.7c-0.6,0.6-1.3,1.1-2.1,1.7c-0.7,0.5-1.5,0.9-2.4,1.3c-0.9,0.3-1.8,0.5-2.8,0.5c-2.6,0-5-0.5-7.2-1.5
		c-2.2-1-4.1-2.3-5.6-4c-1.6-1.7-2.8-3.7-3.7-6c-0.9-2.3-1.3-4.8-1.3-7.4c0-2.7,0.4-5.1,1.3-7.4c0.9-2.3,2.1-4.3,3.7-6
		c1.6-1.7,3.5-3,5.6-4c2.2-1,4.6-1.4,7.2-1.4c1.1,0,2,0.2,2.9,0.5c0.9,0.3,1.7,0.7,2.4,1.2c0.7,0.5,1.4,1,2,1.6
		c0.6,0.6,1.2,1.2,1.7,1.8v-13.1c0-0.6,0.2-1.1,0.6-1.5c0.4-0.4,0.9-0.6,1.7-0.6h6.5c0.2,0,0.5,0.1,0.8,0.2c0.3,0.1,0.5,0.3,0.8,0.4
		c0.2,0.2,0.4,0.4,0.6,0.7c0.1,0.3,0.2,0.6,0.2,0.9v42.9c0,1.5-0.8,2.2-2.3,2.2h-5.6c-0.4,0-0.7,0-0.9-0.1s-0.4-0.2-0.5-0.4
		c-0.1-0.2-0.3-0.4-0.4-0.7c-0.1-0.3-0.3-0.6-0.4-1L241.2,220.1z M224.8,206.3c0,1.3,0.2,2.4,0.6,3.5c0.4,1.1,1,2.1,1.7,2.9
		c0.7,0.8,1.6,1.4,2.6,1.9c1,0.5,2.2,0.7,3.4,0.7c1.2,0,2.4-0.2,3.5-0.7c1.1-0.4,2-1,2.8-1.8c0.8-0.8,1.4-1.7,1.9-2.7
		c0.5-1.1,0.8-2.2,0.8-3.4v-0.4c0-1.2-0.2-2.4-0.7-3.5c-0.5-1.1-1.1-2.1-1.9-2.9c-0.8-0.8-1.8-1.5-2.9-2c-1.1-0.5-2.3-0.7-3.6-0.7
		c-1.2,0-2.4,0.2-3.4,0.7c-1,0.5-1.9,1.2-2.6,2c-0.7,0.8-1.3,1.8-1.7,2.9C225,203.9,224.8,205.1,224.8,206.3"/>
	<path style="clip-path:url(#SVGID_00000057856848158338918030000009204872214198287520_);" d="M293.7,224c-0.2,0.2-0.5,0.3-0.8,0.4
		c-0.3,0.1-0.5,0.1-0.8,0.1h-4.3c-0.3,0-0.6-0.1-0.9-0.2c-0.2-0.1-0.5-0.3-0.6-0.5c-0.2-0.2-0.3-0.4-0.4-0.7
		c-0.1-0.3-0.2-0.5-0.3-0.8l-0.9-3.7c-0.3,0.6-0.7,1.3-1.2,2c-0.5,0.8-1.2,1.5-2.1,2.1c-0.8,0.7-1.8,1.2-3,1.7
		c-1.2,0.4-2.5,0.7-4,0.7c-2.2,0-4.2-0.4-5.9-1.3c-1.8-0.8-3.3-2-4.5-3.4c-1.3-1.5-2.2-3.1-2.9-5.1c-0.7-1.9-1-4-1-6.2v-18.8
		c0-0.7,0.2-1.3,0.5-1.6c0.3-0.4,0.8-0.6,1.5-0.6h6.6c0.8,0,1.4,0.1,1.7,0.4c0.3,0.3,0.5,0.8,0.5,1.6v18.7c0,0.8,0.2,1.6,0.6,2.3
		c0.4,0.7,0.9,1.4,1.5,2s1.3,1,2.1,1.3c0.8,0.3,1.6,0.5,2.4,0.5c0.7,0,1.4-0.2,2.1-0.5c0.7-0.3,1.4-0.8,2-1.3
		c0.6-0.5,1.1-1.2,1.5-1.9c0.4-0.7,0.6-1.5,0.6-2.3v-18.7c0-0.3,0.1-0.7,0.2-1c0.1-0.3,0.3-0.6,0.6-0.7c0.2-0.2,0.5-0.3,0.7-0.3
		c0.2-0.1,0.5-0.1,0.8-0.1h6.5c0.8,0,1.4,0.2,1.8,0.6c0.4,0.4,0.5,0.9,0.5,1.6v32.1c0,0.4-0.1,0.7-0.2,1c-0.2,0.3-0.4,0.5-0.7,0.7
		L293.7,224z"/>
	<path style="clip-path:url(#SVGID_00000057856848158338918030000009204872214198287520_);" d="M324.6,213.3
		c0.3-0.2,0.5-0.3,0.8-0.4c0.2,0,0.4-0.1,0.6-0.1c0.3,0,0.6,0.1,0.9,0.2c0.3,0.1,0.5,0.4,0.8,0.9l3.2,4.8c0.1,0.2,0.2,0.3,0.3,0.5
		c0.1,0.2,0.1,0.3,0.1,0.5c0,0.4-0.1,0.8-0.4,1.1c-0.3,0.3-0.6,0.5-0.9,0.7c-1.6,1.1-3.3,2-5.1,2.6c-1.9,0.7-3.8,1-5.9,1
		c-1.7,0-3.4-0.2-5-0.7c-1.6-0.4-3.1-1.1-4.5-1.9c-1.4-0.8-2.6-1.8-3.8-2.9c-1.1-1.1-2.1-2.4-2.9-3.8c-0.8-1.4-1.4-2.9-1.9-4.5
		c-0.4-1.6-0.7-3.3-0.7-5.1s0.2-3.5,0.7-5.1c0.4-1.6,1.1-3.1,1.9-4.5c0.8-1.4,1.8-2.6,2.9-3.8c1.1-1.1,2.4-2.1,3.8-2.9
		c1.4-0.8,2.9-1.4,4.5-1.9c1.6-0.4,3.3-0.7,5-0.7c2.1,0,4,0.3,5.8,0.8s3.4,1.4,5,2.5l-0.1-0.1c0.4,0.2,0.8,0.5,1,0.9
		c0.2,0.3,0.4,0.8,0.4,1.2c0,0.3-0.1,0.7-0.3,1.1l-2.6,4.3c-0.5,0.9-1.2,1.4-1.9,1.4c-0.2,0-0.4,0-0.6-0.1c-0.2-0.1-0.5-0.2-0.8-0.4
		c-0.8-0.6-1.7-1-2.7-1.4c-1-0.4-2-0.5-3.1-0.5c-1.2,0-2.3,0.2-3.3,0.7c-1,0.5-1.9,1.2-2.6,2c-0.7,0.8-1.3,1.8-1.7,2.9
		c-0.4,1.1-0.6,2.3-0.6,3.5c0,1.3,0.2,2.4,0.6,3.5c0.4,1.1,1,2.1,1.7,2.9c0.7,0.8,1.6,1.4,2.6,1.9c1,0.5,2.1,0.7,3.3,0.7
		c1.1,0,2.1-0.2,3.1-0.6C322.9,214.4,323.8,213.9,324.6,213.3"/>
	<path style="clip-path:url(#SVGID_00000057856848158338918030000009204872214198287520_);" d="M373,222.4c0,0.3-0.1,0.6-0.2,0.9
		c-0.1,0.3-0.3,0.5-0.6,0.7c-0.2,0.2-0.5,0.3-0.7,0.4c-0.3,0.1-0.5,0.1-0.7,0.1h-5.7c-0.4,0-0.7-0.1-1-0.2c-0.2-0.1-0.4-0.3-0.6-0.4
		c-0.2-0.2-0.3-0.4-0.4-0.7c-0.1-0.3-0.2-0.6-0.3-0.9l-0.8-2.2c-0.5,0.5-1.1,1.1-1.7,1.6c-0.6,0.6-1.3,1.1-2,1.6s-1.5,0.9-2.4,1.2
		c-0.9,0.3-1.8,0.5-2.8,0.5c-1.7,0-3.4-0.2-5-0.7c-1.6-0.4-3.1-1.1-4.5-1.9c-1.4-0.8-2.6-1.8-3.8-2.9c-1.1-1.1-2.1-2.4-2.9-3.8
		c-0.8-1.4-1.4-2.9-1.9-4.5c-0.4-1.6-0.7-3.3-0.7-5.1c0-2.7,0.5-5.1,1.5-7.4c1-2.3,2.3-4.3,4-6c1.7-1.7,3.7-3,5.9-4
		c2.3-1,4.7-1.4,7.3-1.4c1.2,0,2.3,0.2,3.3,0.5c1,0.4,1.9,0.8,2.7,1.4c0.8,0.6,1.5,1.2,2.2,2c0.7,0.7,1.2,1.5,1.8,2.2l1.1-3.5
		c0.2-0.5,0.3-0.9,0.5-1.2c0.1-0.3,0.3-0.5,0.4-0.7c0.1-0.1,0.3-0.2,0.5-0.3c0.2,0,0.5-0.1,0.9-0.1h4.3c0.2,0,0.5,0,0.7,0.1
		c0.3,0.1,0.5,0.2,0.7,0.4c0.3,0.2,0.5,0.4,0.6,0.7c0.1,0.3,0.2,0.6,0.2,0.9V222.4z M344.8,206.3c0,1.3,0.2,2.4,0.6,3.5
		c0.4,1.1,1,2.1,1.7,2.9c0.7,0.8,1.6,1.4,2.6,1.9c1,0.5,2.2,0.7,3.4,0.7c1.3,0,2.5-0.2,3.6-0.7c1.1-0.5,2.1-1.1,2.9-1.9
		c0.8-0.8,1.4-1.8,1.9-2.9c0.5-1.1,0.7-2.3,0.7-3.5c0-1.2-0.2-2.4-0.7-3.5c-0.5-1.1-1.1-2.1-1.9-2.9c-0.8-0.8-1.8-1.5-2.9-2
		c-1.1-0.5-2.3-0.7-3.6-0.7c-1.2,0-2.4,0.2-3.4,0.7c-1,0.5-1.9,1.2-2.6,2c-0.7,0.8-1.3,1.8-1.7,2.9
		C345,203.9,344.8,205.1,344.8,206.3"/>
	<path style="clip-path:url(#SVGID_00000057856848158338918030000009204872214198287520_);" d="M382.1,182.4c0-0.6,0.2-1,0.6-1.3
		c0.4-0.3,0.9-0.6,1.7-0.8l6.5-2.3c0.1,0,0.2,0,0.3,0h0.2c0.7,0,1.2,0.2,1.4,0.6c0.2,0.4,0.4,1,0.4,1.6l0,9h4.8
		c0.6,0,1.1,0.2,1.5,0.5c0.4,0.4,0.6,0.9,0.6,1.6v5.5c0,0.8-0.2,1.4-0.6,1.8c-0.4,0.4-0.9,0.6-1.5,0.6h-4.8l0,23.1
		c0,0.7-0.2,1.3-0.6,1.6c-0.4,0.4-1,0.6-1.8,0.6h-6.5c-1.5,0-2.2-0.7-2.2-2.2l0-23.1H380c-1.5,0-2.2-0.8-2.2-2.3v-5.5
		c0-1.5,0.7-2.2,2.2-2.2h2.1L382.1,182.4z"/>
	<path style="clip-path:url(#SVGID_00000057856848158338918030000009204872214198287520_);" d="M404.5,175.8c0-0.8,0.2-1.4,0.5-1.7
		c0.3-0.3,0.9-0.5,1.6-0.5h6.7c0.7,0,1.2,0.2,1.6,0.5c0.4,0.3,0.6,0.9,0.6,1.7v5.6c0,0.2-0.1,0.5-0.2,0.7c-0.1,0.3-0.3,0.5-0.4,0.8
		c-0.2,0.2-0.4,0.5-0.7,0.6c-0.3,0.2-0.6,0.2-0.9,0.2h-6.7c-1.4,0-2.1-0.8-2.1-2.4V175.8z M404.5,190.3c0-0.6,0.2-1.1,0.5-1.6
		c0.3-0.4,0.9-0.7,1.6-0.7h6.6c0.2,0,0.5,0.1,0.7,0.2c0.3,0.1,0.5,0.3,0.7,0.5c0.2,0.2,0.4,0.4,0.6,0.7c0.2,0.3,0.2,0.6,0.2,0.9v32
		c0,0.7-0.2,1.3-0.6,1.6c-0.4,0.4-1,0.6-1.7,0.6h-6.6c-1.4,0-2.1-0.7-2.1-2.2V190.3z"/>
	<path style="clip-path:url(#SVGID_00000057856848158338918030000009204872214198287520_);" d="M421.3,206.3c0-1.8,0.2-3.5,0.7-5.1
		c0.4-1.6,1.1-3.1,1.9-4.5c0.8-1.4,1.8-2.6,2.9-3.8c1.1-1.1,2.4-2.1,3.8-2.9c1.4-0.8,2.9-1.4,4.5-1.9c1.6-0.4,3.3-0.7,5.1-0.7
		c2.6,0,5,0.5,7.3,1.4c2.3,1,4.3,2.3,6,4c1.7,1.7,3,3.7,4,6c1,2.3,1.5,4.8,1.5,7.4c0,1.8-0.2,3.4-0.7,5.1c-0.4,1.6-1.1,3.1-1.9,4.5
		c-0.8,1.4-1.8,2.7-2.9,3.8c-1.1,1.1-2.4,2.1-3.8,2.9c-1.4,0.8-2.9,1.4-4.5,1.9c-1.6,0.4-3.3,0.7-5,0.7c-1.8,0-3.4-0.2-5.1-0.7
		c-1.6-0.4-3.1-1.1-4.5-1.9c-1.4-0.8-2.7-1.8-3.8-2.9c-1.1-1.1-2.1-2.4-2.9-3.8c-0.8-1.4-1.4-2.9-1.9-4.5
		C421.5,209.8,421.3,208.1,421.3,206.3 M431.7,206.3c0,1.3,0.2,2.4,0.6,3.5c0.4,1.1,0.9,2.1,1.7,2.9c0.7,0.8,1.6,1.4,2.6,1.9
		c1,0.5,2.2,0.7,3.5,0.7c1.2,0,2.4-0.2,3.4-0.7c1-0.5,1.9-1.1,2.6-1.9c0.7-0.8,1.2-1.8,1.6-2.9c0.4-1.1,0.6-2.3,0.6-3.5
		c0-1.2-0.2-2.4-0.6-3.5c-0.4-1.1-0.9-2.1-1.6-2.9c-0.7-0.8-1.5-1.5-2.6-2c-1-0.5-2.1-0.7-3.4-0.7c-1.3,0-2.4,0.2-3.5,0.7
		c-1,0.5-1.9,1.2-2.6,2c-0.7,0.8-1.3,1.8-1.7,2.9C431.9,203.9,431.7,205.1,431.7,206.3"/>
	<path style="clip-path:url(#SVGID_00000057856848158338918030000009204872214198287520_);" d="M465.4,188.6
		c0.2-0.2,0.5-0.3,0.8-0.4c0.3-0.1,0.5-0.1,0.8-0.1h4.3c0.3,0,0.6,0.1,0.9,0.2c0.2,0.1,0.5,0.3,0.6,0.5c0.2,0.2,0.3,0.4,0.4,0.7
		c0.1,0.3,0.2,0.5,0.3,0.8l0.9,3.7c0.3-0.6,0.7-1.3,1.2-2c0.5-0.8,1.2-1.5,2.1-2.1c0.8-0.7,1.8-1.2,3-1.7c1.2-0.4,2.5-0.7,4-0.7
		c2.2,0,4.2,0.4,5.9,1.3c1.8,0.8,3.3,2,4.5,3.4c1.3,1.4,2.2,3.1,2.9,5.1c0.7,1.9,1,4,1,6.2v18.8c0,0.7-0.2,1.3-0.5,1.6
		c-0.3,0.4-0.8,0.6-1.5,0.6h-6.6c-0.8,0-1.4-0.1-1.7-0.4c-0.3-0.3-0.5-0.8-0.5-1.6v-18.7c0-0.8-0.2-1.6-0.6-2.3
		c-0.4-0.7-0.9-1.4-1.5-1.9c-0.6-0.6-1.3-1-2.1-1.3c-0.8-0.3-1.6-0.5-2.4-0.5c-0.7,0-1.4,0.2-2.1,0.5c-0.7,0.3-1.4,0.7-2,1.3
		c-0.6,0.5-1.1,1.2-1.5,1.9c-0.4,0.7-0.6,1.5-0.7,2.4v18.6c0,0.3-0.1,0.7-0.2,1c-0.1,0.3-0.3,0.6-0.6,0.7c-0.2,0.2-0.5,0.3-0.7,0.3
		c-0.2,0.1-0.5,0.1-0.8,0.1H467c-0.8,0-1.4-0.2-1.8-0.6c-0.4-0.4-0.5-0.9-0.5-1.6v-32.1c0-0.4,0.1-0.7,0.2-1
		c0.2-0.3,0.4-0.5,0.7-0.7L465.4,188.6z"/>
	<path style="clip-path:url(#SVGID_00000057856848158338918030000009204872214198287520_);" d="M524.8,188.4
		c0.2-0.2,0.5-0.3,0.8-0.4c0.3-0.1,0.5-0.1,0.8-0.1h4.3c0.4,0,0.7,0.1,0.9,0.2c0.2,0.1,0.4,0.3,0.6,0.5c0.2,0.2,0.3,0.4,0.4,0.7
		c0.1,0.3,0.2,0.5,0.3,0.8l1.2,3.5c0.5-0.7,1.1-1.4,1.6-2.1c0.5-0.7,1.2-1.4,1.9-1.9s1.6-1.1,2.7-1.4c1-0.4,2.3-0.6,3.8-0.6
		c2.6,0,5,0.5,7.2,1.4c2.2,1,4.1,2.3,5.7,4c1.6,1.7,2.8,3.7,3.7,6c0.9,2.3,1.3,4.8,1.3,7.4c0,2.6-0.4,5.1-1.3,7.4
		c-0.9,2.3-2.1,4.3-3.7,6c-1.6,1.7-3.5,3-5.7,4c-2.2,1-4.6,1.5-7.2,1.5c-1.2,0-2.3-0.1-3.2-0.4c-0.9-0.3-1.7-0.7-2.4-1.2
		c-0.7-0.5-1.3-1-1.8-1.6c-0.5-0.6-1.1-1.1-1.6-1.7v13.4c0,0.6-0.2,1.1-0.5,1.5c-0.3,0.4-0.9,0.6-1.6,0.6h-6.6c-0.2,0-0.5,0-0.7-0.1
		c-0.3-0.1-0.5-0.2-0.7-0.4c-0.2-0.2-0.4-0.4-0.6-0.6c-0.2-0.3-0.2-0.6-0.2-0.9v-43.6c0-0.4,0.1-0.7,0.2-0.9
		C524.4,188.9,524.6,188.6,524.8,188.4 M551.6,206.3c0-1.2-0.2-2.4-0.6-3.5c-0.4-1.1-1-2.1-1.7-2.9c-0.7-0.8-1.6-1.5-2.6-1.9
		c-1-0.5-2.1-0.7-3.4-0.7c-1.2,0-2.3,0.2-3.4,0.7c-1.1,0.4-2,1.1-2.8,1.8c-0.8,0.8-1.5,1.7-2,2.7c-0.5,1.1-0.8,2.2-0.8,3.4v0.4
		c0,1.3,0.2,2.4,0.7,3.6c0.5,1.1,1.1,2.1,2,2.9c0.8,0.8,1.8,1.5,2.9,1.9c1.1,0.5,2.3,0.7,3.5,0.7c1.2,0,2.3-0.2,3.4-0.7
		c1-0.5,1.9-1.1,2.6-1.9c0.7-0.8,1.3-1.8,1.7-2.9C551.4,208.8,551.6,207.6,551.6,206.3"/>
	<path style="clip-path:url(#SVGID_00000057856848158338918030000009204872214198287520_);" d="M567.8,190.2c0-0.3,0.1-0.6,0.2-0.9
		c0.1-0.3,0.3-0.5,0.5-0.7c0.5-0.3,1-0.5,1.5-0.5h4.3c0.4,0,0.6,0.1,0.9,0.2c0.2,0.1,0.4,0.3,0.5,0.5c0.1,0.2,0.3,0.4,0.4,0.7
		c0.1,0.3,0.2,0.5,0.4,0.8c0,0.1,0.1,0.3,0.2,0.6c0.1,0.3,0.2,0.6,0.4,1c0.1,0.4,0.3,0.7,0.4,1c0.1,0.3,0.2,0.5,0.2,0.6
		c0.6-0.6,1.1-1.3,1.6-2s1.1-1.3,1.7-1.9c0.6-0.6,1.3-1.1,2-1.5c0.7-0.4,1.6-0.6,2.6-0.6c1,0,2,0.1,2.8,0.2c0.8,0.2,1.6,0.4,2.3,0.7
		c0.7,0.3,1.4,0.7,2.2,1.1c0.7,0.5,1.5,1,2.3,1.6c1.3,0.7,1.6,1.8,0.7,3.2l-2.6,4.4c-0.4,0.6-0.8,0.9-1.4,1.1
		c-0.6,0.1-1.2,0-1.8-0.3c-0.8-0.8-1.7-1.4-2.5-1.8c-0.9-0.4-1.8-0.6-2.9-0.6c-0.7,0-1.4,0.1-2,0.3c-0.6,0.2-1.1,0.5-1.5,0.9
		c-0.5,0.4-0.9,0.8-1.3,1.4c-0.4,0.5-0.8,1.1-1.2,1.8v20.8c0,0.7-0.2,1.3-0.5,1.6c-0.4,0.4-0.9,0.6-1.8,0.6h-6.5
		c-1.5,0-2.2-0.7-2.2-2.2V190.2z"/>
	<path style="clip-path:url(#SVGID_00000057856848158338918030000009204872214198287520_);" d="M596.9,206.3c0-1.8,0.2-3.5,0.7-5.1
		c0.4-1.6,1.1-3.1,1.9-4.5c0.8-1.4,1.8-2.6,2.9-3.8c1.1-1.1,2.4-2.1,3.8-2.9c1.4-0.8,2.9-1.4,4.5-1.9c1.6-0.4,3.3-0.7,5.1-0.7
		c2.6,0,5,0.5,7.3,1.4c2.3,1,4.3,2.3,6,4c1.7,1.7,3,3.7,4,6c1,2.3,1.5,4.8,1.5,7.4c0,1.8-0.2,3.4-0.7,5.1c-0.4,1.6-1.1,3.1-1.9,4.5
		c-0.8,1.4-1.8,2.7-2.9,3.8c-1.1,1.1-2.4,2.1-3.8,2.9c-1.4,0.8-2.9,1.4-4.5,1.9c-1.6,0.4-3.3,0.7-5,0.7c-1.8,0-3.4-0.2-5.1-0.7
		c-1.6-0.4-3.1-1.1-4.5-1.9c-1.4-0.8-2.7-1.8-3.8-2.9c-1.1-1.1-2.1-2.4-2.9-3.8c-0.8-1.4-1.4-2.9-1.9-4.5
		C597.2,209.8,596.9,208.1,596.9,206.3 M607.4,206.3c0,1.3,0.2,2.4,0.6,3.5c0.4,1.1,0.9,2.1,1.7,2.9c0.7,0.8,1.6,1.4,2.6,1.9
		s2.2,0.7,3.5,0.7c1.2,0,2.4-0.2,3.4-0.7c1-0.5,1.9-1.1,2.6-1.9c0.7-0.8,1.2-1.8,1.6-2.9c0.4-1.1,0.6-2.3,0.6-3.5
		c0-1.2-0.2-2.4-0.6-3.5c-0.4-1.1-0.9-2.1-1.6-2.9c-0.7-0.8-1.5-1.5-2.6-2c-1-0.5-2.1-0.7-3.4-0.7c-1.3,0-2.4,0.2-3.5,0.7
		s-1.9,1.2-2.6,2c-0.7,0.8-1.3,1.8-1.7,2.9C607.6,203.9,607.4,205.1,607.4,206.3"/>
	<path style="clip-path:url(#SVGID_00000057856848158338918030000009204872214198287520_);" d="M666.7,223.2
		c0.2-0.6,0.3-1.4,0.3-2.2c0-0.8,0-1.7,0-2.5c-0.6,0.6-1.1,1.2-1.7,1.9c-0.6,0.7-1.2,1.3-1.9,1.8c-0.7,0.6-1.5,1-2.4,1.4
		c-0.9,0.4-1.9,0.5-3.1,0.5c-2.6,0-5-0.4-7.2-1.3s-4.1-2.1-5.7-3.7c-1.6-1.6-2.9-3.5-3.8-5.7c-0.9-2.2-1.3-4.6-1.3-7.3
		c0-2.6,0.4-5.1,1.3-7.4c0.9-2.3,2.2-4.3,3.8-6c1.6-1.7,3.5-3,5.7-4c2.2-1,4.6-1.4,7.2-1.4c1.2,0,2.3,0.2,3.2,0.5
		c0.9,0.4,1.8,0.8,2.6,1.4c0.8,0.6,1.5,1.2,2.1,1.9c0.6,0.7,1.2,1.4,1.8,2.1l1.1-3.4c0.1-0.3,0.2-0.6,0.3-0.9
		c0.1-0.3,0.2-0.5,0.4-0.7c0.2-0.2,0.3-0.3,0.6-0.4c0.2-0.1,0.5-0.1,0.9-0.1h4.3c0.2,0,0.5,0,0.7,0.1c0.3,0.1,0.5,0.2,0.7,0.4
		c0.3,0.2,0.5,0.4,0.6,0.7c0.1,0.2,0.2,0.6,0.2,0.9v29.2c0,3-0.5,5.6-1.5,8c-1,2.3-2.3,4.3-4,5.9c-1.7,1.6-3.7,2.8-6,3.7
		c-2.3,0.8-4.8,1.3-7.5,1.3c-1,0-2.1-0.1-3.3-0.3c-1.2-0.2-2.4-0.5-3.5-0.8c-1.2-0.4-2.3-0.8-3.4-1.4c-1.1-0.6-2.1-1.2-2.9-2
		c-0.2-0.2-0.4-0.4-0.6-0.6c-0.2-0.2-0.3-0.5-0.4-0.8c-0.1-0.3-0.1-0.6,0-0.9c0.1-0.3,0.2-0.7,0.5-1l2.7-3.8c0.5-0.5,1-0.8,1.4-0.9
		c0.4,0,1,0.2,1.7,0.7c0.5,0.5,1,0.8,1.6,1.1c0.6,0.3,1.3,0.5,1.9,0.7c0.7,0.2,1.3,0.3,1.9,0.3s1.2,0.1,1.7,0.1
		c0.9,0,1.8-0.1,2.7-0.3c0.9-0.2,1.8-0.6,2.6-1c0.8-0.4,1.5-1,2.2-1.6C666,224.8,666.5,224.1,666.7,223.2 M650.3,206.2
		c0,1.3,0.2,2.5,0.6,3.6c0.4,1.1,1,2.1,1.7,2.9c0.7,0.8,1.6,1.4,2.6,1.9c1,0.5,2.2,0.7,3.4,0.7c1.2,0,2.4-0.2,3.5-0.6
		c1.1-0.4,2-1,2.8-1.8c0.8-0.8,1.4-1.7,1.9-2.7c0.5-1,0.8-2.2,0.8-3.4v-0.9c-0.1-1.2-0.3-2.3-0.8-3.3c-0.5-1-1.1-2-1.9-2.8
		c-0.8-0.8-1.7-1.4-2.8-1.9c-1.1-0.5-2.2-0.7-3.5-0.7c-1.2,0-2.4,0.2-3.4,0.7c-1,0.5-1.9,1.1-2.6,2c-0.7,0.8-1.3,1.8-1.7,2.9
		C650.5,203.8,650.3,205,650.3,206.2"/>
	<path style="clip-path:url(#SVGID_00000057856848158338918030000009204872214198287520_);" d="M684.4,190.2c0-0.3,0.1-0.6,0.2-0.9
		c0.1-0.3,0.3-0.5,0.5-0.7c0.5-0.3,1-0.5,1.5-0.5h4.3c0.4,0,0.6,0.1,0.9,0.2c0.2,0.1,0.4,0.3,0.5,0.5c0.1,0.2,0.3,0.4,0.4,0.7
		c0.1,0.3,0.2,0.5,0.4,0.8c0,0.1,0.1,0.3,0.2,0.6c0.1,0.3,0.2,0.6,0.4,1c0.1,0.4,0.3,0.7,0.4,1c0.1,0.3,0.2,0.5,0.2,0.6
		c0.6-0.6,1.1-1.3,1.6-2s1.1-1.3,1.7-1.9c0.6-0.6,1.3-1.1,2-1.5c0.7-0.4,1.6-0.6,2.6-0.6c1,0,2,0.1,2.8,0.2c0.8,0.2,1.6,0.4,2.3,0.7
		c0.7,0.3,1.4,0.7,2.2,1.1c0.7,0.5,1.5,1,2.3,1.6c1.3,0.7,1.6,1.8,0.7,3.2l-2.6,4.4c-0.4,0.6-0.8,0.9-1.4,1.1
		c-0.6,0.1-1.2,0-1.8-0.3c-0.8-0.8-1.7-1.4-2.5-1.8c-0.9-0.4-1.8-0.6-2.9-0.6c-0.7,0-1.4,0.1-2,0.3c-0.6,0.2-1.1,0.5-1.5,0.9
		c-0.5,0.4-0.9,0.8-1.3,1.4c-0.4,0.5-0.8,1.1-1.2,1.8v20.8c0,0.7-0.2,1.3-0.5,1.6c-0.4,0.4-0.9,0.6-1.8,0.6h-6.5
		c-1.5,0-2.2-0.7-2.2-2.2V190.2z"/>
	<path style="clip-path:url(#SVGID_00000057856848158338918030000009204872214198287520_);" d="M752.1,222.4c0,0.3-0.1,0.6-0.2,0.9
		c-0.1,0.3-0.3,0.5-0.6,0.7c-0.2,0.2-0.5,0.3-0.7,0.4c-0.3,0.1-0.5,0.1-0.7,0.1h-5.7c-0.4,0-0.7-0.1-1-0.2c-0.2-0.1-0.4-0.3-0.6-0.4
		c-0.2-0.2-0.3-0.4-0.4-0.7c-0.1-0.3-0.2-0.6-0.3-0.9l-0.8-2.2c-0.5,0.5-1.1,1.1-1.7,1.6c-0.6,0.6-1.3,1.1-2,1.6s-1.5,0.9-2.4,1.2
		c-0.9,0.3-1.8,0.5-2.8,0.5c-1.7,0-3.4-0.2-5-0.7c-1.6-0.4-3.1-1.1-4.5-1.9c-1.4-0.8-2.6-1.8-3.8-2.9c-1.1-1.1-2.1-2.4-2.9-3.8
		c-0.8-1.4-1.4-2.9-1.9-4.5c-0.4-1.6-0.7-3.3-0.7-5.1c0-2.7,0.5-5.1,1.5-7.4c1-2.3,2.3-4.3,4-6c1.7-1.7,3.7-3,5.9-4
		c2.3-1,4.7-1.4,7.3-1.4c1.2,0,2.3,0.2,3.3,0.5c1,0.4,1.9,0.8,2.7,1.4c0.8,0.6,1.5,1.2,2.2,2c0.7,0.7,1.2,1.5,1.8,2.2l1.1-3.5
		c0.2-0.5,0.3-0.9,0.5-1.2c0.1-0.3,0.3-0.5,0.4-0.7c0.1-0.1,0.3-0.2,0.5-0.3c0.2,0,0.5-0.1,0.9-0.1h4.3c0.2,0,0.5,0,0.7,0.1
		c0.3,0.1,0.5,0.2,0.7,0.4c0.3,0.2,0.5,0.4,0.6,0.7c0.1,0.3,0.2,0.6,0.2,0.9V222.4z M723.8,206.3c0,1.3,0.2,2.4,0.6,3.5
		c0.4,1.1,1,2.1,1.7,2.9c0.7,0.8,1.6,1.4,2.6,1.9c1,0.5,2.2,0.7,3.4,0.7c1.3,0,2.5-0.2,3.6-0.7s2.1-1.1,2.9-1.9
		c0.8-0.8,1.4-1.8,1.9-2.9c0.5-1.1,0.7-2.3,0.7-3.5c0-1.2-0.2-2.4-0.7-3.5c-0.5-1.1-1.1-2.1-1.9-2.9c-0.8-0.8-1.8-1.5-2.9-2
		s-2.3-0.7-3.6-0.7c-1.2,0-2.4,0.2-3.4,0.7c-1,0.5-1.9,1.2-2.6,2c-0.7,0.8-1.3,1.8-1.7,2.9C724,203.9,723.8,205.1,723.8,206.3"/>
	<path style="clip-path:url(#SVGID_00000057856848158338918030000009204872214198287520_);" d="M759.7,188.6
		c0.2-0.2,0.5-0.3,0.8-0.4c0.3-0.1,0.5-0.1,0.8-0.1h4.3c0.3,0,0.6,0.1,0.9,0.2c0.2,0.1,0.5,0.3,0.6,0.5c0.2,0.2,0.3,0.4,0.4,0.7
		c0.1,0.3,0.2,0.5,0.3,0.8l0.9,3.7c0.3-0.6,0.6-1.3,1-2c0.4-0.8,1-1.5,1.6-2.1c0.7-0.7,1.5-1.2,2.6-1.7c1-0.4,2.3-0.7,3.8-0.7
		c2.4,0,4.6,0.5,6.4,1.6c1.8,1,3.3,2.4,4.5,4.2c0.4-0.6,0.9-1.2,1.5-1.9c0.6-0.7,1.4-1.3,2.3-1.9c0.9-0.6,1.9-1,3-1.4
		c1.1-0.4,2.4-0.6,3.8-0.6c2.2,0,4.1,0.4,5.8,1.3c1.7,0.8,3.2,2,4.4,3.4c1.2,1.4,2.1,3.1,2.7,5.1c0.6,1.9,0.9,4,0.9,6.2v18.8
		c0,0.7-0.2,1.3-0.5,1.6c-0.3,0.4-0.8,0.6-1.5,0.6h-6.6c-0.8,0-1.4-0.1-1.7-0.4c-0.3-0.3-0.5-0.8-0.5-1.6v-19c0-0.8-0.1-1.6-0.4-2.3
		c-0.3-0.7-0.6-1.3-1.1-1.8c-0.5-0.5-1-0.9-1.7-1.2c-0.7-0.3-1.4-0.4-2.2-0.4c-0.7,0-1.4,0.1-2.1,0.4c-0.7,0.3-1.2,0.7-1.7,1.2
		c-0.5,0.5-0.9,1.1-1.2,1.8c-0.3,0.7-0.4,1.5-0.4,2.4v18.8c0,0.7-0.2,1.3-0.5,1.6c-0.3,0.4-0.8,0.6-1.5,0.6h-0.6h-0.2h-5.8
		c-0.8,0-1.4-0.1-1.7-0.4c-0.3-0.3-0.5-0.8-0.5-1.6v-19c0-0.8-0.1-1.6-0.4-2.3c-0.2-0.7-0.6-1.3-1-1.8c-0.5-0.5-1-0.9-1.6-1.2
		c-0.6-0.3-1.4-0.4-2.2-0.4c-0.7,0-1.4,0.1-2,0.4c-0.7,0.3-1.3,0.7-1.8,1.2c-0.5,0.5-1,1.1-1.3,1.8c-0.4,0.7-0.6,1.5-0.6,2.4v18.9
		c0,0.3-0.1,0.7-0.2,1c-0.1,0.3-0.3,0.6-0.6,0.7c-0.2,0.2-0.5,0.3-0.7,0.3c-0.2,0.1-0.5,0.1-0.8,0.1h-6.5c-0.8,0-1.4-0.2-1.8-0.6
		c-0.4-0.4-0.5-0.9-0.5-1.6v-32.1c0-0.4,0.1-0.7,0.2-1c0.2-0.3,0.4-0.5,0.7-0.7L759.7,188.6z"/>
</g>
</svg>
