<?xml version="1.0" encoding="utf-8"?>
<!-- Generator: Adobe Illustrator 22.0.0, SVG Export Plug-In . SVG Version: 6.00 Build 0)  -->
<svg version="1.1" id="Layer_1" xmlns="http://www.w3.org/2000/svg" xmlns:xlink="http://www.w3.org/1999/xlink" x="0px" y="0px"
	 viewBox="0 0 337.6 257.5" style="enable-background:new 0 0 337.6 257.5;" xml:space="preserve">
<style type="text/css">
	.st0{fill:#5E5E5E;stroke:#5E5E5E;stroke-width:2;stroke-linecap:round;stroke-linejoin:round;stroke-miterlimit:10;}
	.st1{fill:#FFFFFF;stroke:#FFFFFF;stroke-width:1.028;stroke-miterlimit:10;}
	.st2{fill:#FFFFFF;}
</style>
<rect width="337.6" height="257.5"/>
<g>
	<g>
		<path class="st0" d="M137.3,157.8c-0.2-0.1-0.3-0.2-0.5-0.2c3-3.5,3.6-4.6,3.9-6.9c0.6-3.9-0.4-7.7-2.8-10.9
			c-2.4-3.1-5.8-5-9.6-5.4c-1.5-0.2-2.9-0.2-4.3,0c-7,0.7-14.2,1.5-21.5,2.3c-0.2,0-0.4,0.2-0.6,0.4c-0.2,0.3-0.5,0.9-0.5,1.4
			c0.6,5.3,1.3,10.7,1.9,16c1,8.1,2,16.5,2.9,24.7c0.5,4.6,2.4,7.4,6,9h2h0.1c0.3-0.1,0.7-0.2,1-0.2c0.7-0.2,1.4-0.4,2.1-0.4
			c1.8-0.2,3.6-0.4,5.4-0.7c3.4-0.4,6.9-0.8,10.3-1.4c7-1.3,11.3-5.6,12.3-12.5C146.6,165.7,143.8,160.7,137.3,157.8z M116.3,178.9
			L116.3,178.9c-0.6-4.6-1.2-9-1.7-13.6l2.8-0.4c2.5-0.3,5-0.7,7.5-1c0.7-0.1,1.3-0.1,2-0.2c0.8-0.1,1.7-0.1,2.5-0.2
			c2.4-0.3,4.5,0.6,5.8,2.6s1.5,4.7,0.6,6.8c-1.2,2.5-2.9,3.8-5.3,4.1c-2.9,0.4-5.8,0.8-8.7,1.2c-1.5,0.2-3.1,0.4-4.6,0.6
			C116.8,178.9,116.6,178.9,116.3,178.9z M126.8,142.5v0.5c2.4,0,4.4,2.5,4.6,5.8c0.2,3.1-1.4,5.6-3.9,6.1
			c-3.3,0.6-6.6,1.1-10.1,1.6c-1.3,0.2-2.6,0.4-3.9,0.6l-1.5-13.2c1.4-0.1,2.8-0.2,4.2-0.3c3.7-0.2,7.2-0.5,10.7-0.5L126.8,142.5
			L126.8,142.5z"/>
		<path class="st0" d="M260.3,79.4c-0.3,0-0.6,0.1-0.9,0.1c-0.7,0.1-1.5,0.1-2.1,0.5l-0.4,0.3c-2,1.2-4.1,2.5-5.7,4.1
			c-4.1,3.9-8.2,8-12.1,12c-1.3,1.3-2.6,2.6-3.9,4c-0.5,0.5-1,1-1.5,1.6c-0.1,0.1-0.2,0.2-0.2,0.3l0,0c-0.2-0.3-0.4-0.6-0.6-0.9
			c-1.1-1.9-2.3-3.7-3.4-5.6c-2.7-4.4-5.4-8.9-8.3-13.3c-1.4-2.1-3.1-4-4.7-5.8l-0.9-1c-0.5-0.5-1.1-0.9-1.8-1.3
			c-0.3-0.2-0.6-0.4-0.9-0.6l-0.7-0.5l-6.2,52.6h0.6c0.5,0,1,0,1.4,0c0.9,0,1.8,0,2.6,0c3.7-0.2,5.3-1.7,5.7-5.4
			c0.8-6.6,1.5-13.1,2.3-19.7c0.1-1.2,0.3-2.4,0.5-3.8l0.1-0.8c0.3,0.5,0.6,0.9,0.8,1.3l4.6,7.5c1.8,2.9,3.5,5.8,5.3,8.6
			c0.7,1.1,1.3,2,2.1,2c0.6,0,1.2-0.5,2.2-1.4c3-3,5.9-5.9,8.9-8.9l5.1-5.1c0.2-0.2,0.3-0.3,0.5-0.5c0,0.1,0,0.2,0,0.4l-3,25.3
			c-0.3,2.7,0.8,4.7,2.8,5.2c1.7,0.4,3.5,0.6,5.2,0.8c0.7,0.1,1.5,0.2,2.2,0.3l1.2,0.2l-0.8-1c-1.3-1.7-1.3-3.4-1.1-4.9
			c0.8-6.3,1.5-12.6,2.3-18.8c0.7-6.3,1.5-12.5,2.2-18.8c0.2-1.5,0.5-3,0.7-4.5c0.1-0.7,0.3-1.4,0.4-2.2v-2L260.3,79.4z"/>
		<path class="st0" d="M106.1,112.7c10.4-2,16.3-9.9,15.1-20C120,82.7,113,76,103.8,76c-0.7,0-1.3,0-2,0.1c-3.3,0.3-6.7,0.9-10,1.4
			c-1.5,0.2-2.9,0.5-4.4,0.7l-12.5,1.9v1.2l0.4,0.1c2.2,0.4,3.4,1.6,3.8,3.6c1.5,9.3,3,18.6,4.5,27.9l1.4,8.3
			c0.3,1.9,0.6,3.7,0.9,5.7l0.8,4.9l0.6-0.2c0.6-0.2,1.2-0.5,1.8-0.7c1.3-0.5,2.5-0.9,3.6-1.5c2.3-1.3,3.1-3.3,2.5-5.8
			c-0.5-2.1-0.8-4.1-1.1-6.3c-0.1-0.8-0.2-1.6-0.4-2.4c1.2-0.2,2.4-0.4,3.7-0.6C100.4,113.7,103.3,113.2,106.1,112.7z M106.3,103.4
			c-3.3,0.9-6.6,1.6-10.1,2.3c-1.3,0.3-2.6,0.5-3.9,0.8l-3.2-19.6c0.1-0.1,0.2-0.1,0.3-0.1c1.8-0.3,3.5-0.6,5.3-0.8
			c2.2-0.4,4.5-0.7,6.7-1.1c3.6-0.6,6.8,0.8,8.8,3.9c1.9,2.9,2.3,6.8,0.9,9.9C110.3,100.4,108.9,102.6,106.3,103.4z"/>
		<path class="st0" d="M114.9,127.2h0.8c0.9,0,1.8-0.1,2.6-0.2c2-0.1,3.8-0.2,5.7-0.3c1.4,0,2.1-0.5,2.5-1.7s0.9-2.3,1.3-3.5
			c0.5-1.4,1.1-2.8,1.6-4.2c0.4-1.2,1-1.7,2.3-1.8c7-0.4,13.3-0.8,19.3-1.2c1.2-0.1,1.9,0.3,2.5,1.3c1.2,2.3,2.7,4.9,4.4,7.4
			c0.7,1,2,2,3.2,2c0.2,0,0.5,0,0.7,0c1.9,0,3.7-0.2,5.6-0.3c0.8-0.1,1.6-0.1,2.4-0.2l0.9-0.1l-0.6-0.8c-0.4-0.6-0.9-1.2-1.3-1.7
			c-0.9-1.2-1.8-2.4-2.6-3.6c-1.2-2.1-2.4-4.3-3.5-6.4c-0.5-1-1-1.9-1.6-2.9l-4.8-8.7c-4.6-8.4-9.2-16.9-13.8-25.3
			c-0.5-0.8-1.1-2-2.7-2c-0.4,0-0.8,0-1.1,0c-2.1,0-2.6,0.6-3.6,3.2c-4.7,12-9.4,24-14.1,35.9L114.9,127.2z M132.8,107.2l6.9-18.7
			l9.1,17.7L132.8,107.2z"/>
		<path class="st0" d="M198.7,182.5c-0.9-1.4-1.8-2.7-2.5-4c-7.5-15.5-14.2-29.8-20.7-43.8c-0.9-1.8-2.3-2.6-4.3-2.3
			c-1.1,0.2-2.2,1.3-2.8,2.3c-0.9,1.8-1.7,3.7-2.5,5.5c-0.3,0.8-0.7,1.5-1,2.3l-6.5,14.7c-3.5,7.8-6.9,15.5-10.4,23.3
			c-0.4,0.9-0.8,1.8-1.1,2.7c-0.2,0.4-0.4,0.9-0.5,1.3l-0.3,0.7h0.8c0.9,0,1.7,0,2.5,0h2.3c1.2,0,2.3,0,3.5,0s1.9-0.5,2.3-1.6
			c0.6-1.4,1.2-2.8,1.8-4.2c0.6-1.3,1.1-2.5,1.6-3.8c0.4-0.8,0.8-1.2,1.8-1.2c7.6-0.1,14-0.3,20-0.4h0.1c1.1,0,1.6,0.4,2,1.4
			c0.1,0.4,0.3,0.8,0.4,1.1c0.4,1.2,0.8,2.3,1.3,3.5c0.6,1.4,1.4,2.7,2.3,3.9c0.5,0.7,1.5,1.2,2.3,1.2c1.2,0,2.5,0.1,4.1,0.1
			c0.8,0,1.5,0,2.3,0c0.7,0,1.5,0,2.2,0h0.9l-0.5-0.8C199.7,183.8,199.2,183.2,198.7,182.5z M180.8,166h-16.2l7.6-18.4L180.8,166z"
			/>
		<path class="st0" d="M236.8,135.8c-2.2-0.2-4.2-0.4-6.2-0.4c-1,0-2.3,0.9-2.9,1.7c-2.4,3.4-4.7,6.9-6.9,10.2l-2.1,3.2
			c-1.1,1.7-2.2,3.3-3.4,5l-0.8,1.2c0,0,0-0.1-0.1-0.1c-0.8-1.8-1.6-3.5-2.4-5.3c-2.2-4.7-4.4-9.7-6.8-14.4
			c-0.8-1.5-2.4-3.3-3.9-3.7c-2.2-0.5-4.6-0.7-6.8-0.8c-0.9-0.1-1.8-0.1-2.7-0.2l-1.3-0.1l0.8,1c0.4,0.5,0.8,0.9,1.2,1.3
			c0.9,0.9,1.7,1.7,2.2,2.7c2.3,4.3,4.5,8.6,6.7,12.9c2,3.9,4,7.9,6.1,11.8c1.1,2.1,1.5,4.3,1.2,6.9c-0.4,3.9-0.8,7.8-1.1,11.6
			c-0.1,1.7-0.3,3.3-0.4,5v0.4l0.4,0.1c0.9,0.3,2,0.5,3.1,0.5c1.5,0,2.9-0.3,3.9-0.8c1.1-0.6,2.6-1.6,2.7-3.9
			c0.4-5.6,0.8-10.1,1.3-14.3c0.1-1,0.6-2.2,1.3-3.2c4.5-6.2,9.1-12.4,13.5-18.4l5.1-6.9c0.3-0.3,0.5-0.7,0.8-1.1l0.9-1.4l-0.9-0.1
			C238.5,136,237.7,135.9,236.8,135.8z"/>
		<path class="st0" d="M171.4,74.5c0.5,0.9,1,1.8,1,2.7c0,5.7-0.1,11.6-0.2,17.2c-0.1,3.5-0.1,7.1-0.2,10.6c-0.1,4.3,0,8.5,0,12.9
			c0,2,0,4,0,6.1v0.5h31.2v-8.7h-21.7l0.8-43.4h-11.9l0.3,0.7C170.9,73.6,171.2,74.1,171.4,74.5z"/>
	</g>
	<g>
		<g>
			<path class="st1" d="M113.8,186.5c-3.7-1.7-5.3-4.7-5.7-8.6c-1.5-13.6-3.2-27.1-4.8-40.7c0-0.4,0.4-1.2,0.6-1.2
				c7.2-0.8,14.3-1.6,21.5-2.3c1.4-0.1,2.8-0.1,4.2,0c7.7,0.8,13.2,8,11.9,15.7c-0.4,2.3-0.9,3.3-4.2,7.1c0.4,0.2,0.7,0.4,1,0.6
				c6.3,2.8,9,7.6,7.9,14.5c-1,6.5-4.9,10.8-11.9,12.1c-5.2,1-10.4,1.4-15.7,2.1c-1.1,0.1-2.1,0.5-3.2,0.7
				C114.9,186.5,114.3,186.5,113.8,186.5z M116.8,178.2c0.6,0,1,0,1.4,0c4.4-0.6,8.9-1.3,13.3-1.8c2.8-0.3,4.5-1.9,5.7-4.4
				c2-4.2-0.8-11-6.9-10.1c-1.5,0.2-3,0.2-4.5,0.4c-3.5,0.4-7.1,0.9-10.8,1.4C115.7,168.6,116.3,173.3,116.8,178.2z M114.2,156.4
				c5.1-0.7,9.9-1.3,14.6-2.2c2.9-0.5,4.6-3.4,4.4-6.6c-0.2-3.4-2.3-6.3-5.2-6.2c-5.1,0.1-10.1,0.5-15.5,0.8
				C113.1,147,113.6,151.6,114.2,156.4z"/>
			<path class="st1" d="M261.5,80.1c-0.4,2.2-0.9,4.4-1.1,6.6c-1.5,12.5-3,25.1-4.5,37.6c-0.2,1.9-0.1,3.6,1.2,5.3
				c-2.5-0.3-5-0.5-7.4-1.1c-1.9-0.4-2.7-2.3-2.4-4.6c1-8.4,2-16.9,3-25.3c0.1-0.4,0.1-0.9,0.1-1.6c-0.6,0.6-1.1,0.9-1.5,1.3
				c-4.7,4.7-9.3,9.4-14,14c-1.8,1.8-2.1,1.7-3.5-0.5c-3.3-5.4-6.6-10.8-9.9-16.1c-0.4-0.7-0.9-1.4-1.6-2.5
				c-0.3,2.4-0.6,4.2-0.8,6.1c-0.8,6.6-1.6,13.1-2.3,19.7c-0.4,3.5-1.7,4.7-5.2,4.9c-1.3,0.1-2.5,0-4,0c2-17.2,4-34,6-51.2
				c1,0.6,2,1,2.6,1.8c1.9,2.2,4,4.4,5.6,6.8c4,6.2,7.8,12.6,11.7,18.9c0.3,0.4,0.6,0.9,1,1.5c0.8-0.8,1.4-1.6,2.1-2.3
				c5.3-5.3,10.6-10.7,16-15.9c1.8-1.7,4-3,6.1-4.3c0.8-0.5,1.9-0.4,2.8-0.5C261.5,79.2,261.5,79.7,261.5,80.1z"/>
			<path class="st1" d="M76.6,79.4c4-0.6,8.1-1.2,12.1-1.8c4.8-0.7,9.6-1.6,14.4-2.1c9.9-1,17.6,5.9,18.9,16.1
				c1.2,9.8-4.6,17.5-14.7,19.5c-4.2,0.8-8.4,1.4-12.8,2.2c0.5,3.2,0.8,6.3,1.5,9.3c0.6,2.5-0.4,4.1-2.3,5.3
				c-1.6,0.9-3.4,1.4-5.3,2.2c-0.6-3.6-1.1-6.8-1.6-9.9c-2-12.1-3.9-24.1-5.9-36.2c-0.4-2.4-1.9-3.6-4.2-4
				C76.6,79.7,76.6,79.5,76.6,79.4z M93.1,105.9c5-1.1,9.8-1.9,14.5-3.2c2.4-0.7,4.1-2.6,5.2-5c2.9-6.5-1.8-15.9-10.3-14.5
				c-4,0.7-8,1.3-12,1.9c-0.3,0-0.5,0.2-0.7,0.4C90.9,92.1,91.9,98.7,93.1,105.9z"/>
			<path class="st1" d="M173.8,103.8c-0.1,6.2,0,12.4,0,19c9.9,0,20,0,30.2,0c0-2.3,0-4.8,0-7.7c-7.2,0-14.4,0-21.7,0
				c0.3-14.7,0.5-29,0.8-43.4c-3.9,0-7.5,0-10.6,0c0.6,1.4,1.8,2.8,1.8,4.3C174.2,85.3,173.9,94.6,173.8,103.8z"/>
			<path class="st1" d="M231.8,134.8c-0.8,0-1.9,0.7-2.5,1.5c-3.1,4.4-6,8.9-9,13.4c-1.5,2.3-3,4.5-4.6,7c-0.2-0.4-0.3-0.7-0.5-0.9
				c-3-6.6-6-13.2-9.2-19.7c-0.7-1.4-2.2-3.1-3.6-3.4c-3.1-0.8-6.4-0.7-9.4-1c1.2,1.4,2.7,2.6,3.5,4.1c4.3,8.2,8.4,16.5,12.8,24.7
				c1.2,2.3,1.6,4.6,1.3,7.2c-0.6,5.5-1,11-1.5,16.5c2.1,0.7,4.9,0.5,6.5-0.3c1.4-0.7,2.3-1.7,2.5-3.5c0.3-4.8,0.7-9.6,1.3-14.4
				c0.1-1.2,0.7-2.5,1.4-3.4c6.2-8.5,12.4-16.9,18.6-25.3c0.4-0.5,0.7-1,1.2-1.7C237.4,135.2,234.6,134.8,231.8,134.8z"/>
			<g>
				<path class="st1" d="M166.8,117.5c-1.8-3-3.4-6.2-5.1-9.3c-6.2-11.3-12.4-22.7-18.6-34c-0.5-0.9-1-1.7-2.3-1.8
					c-2.8-0.1-3,0-4.1,2.8c-5.7,14.4-11.3,28.8-17,43.2c-0.9,2.2-1.8,4.5-2.8,7c3-0.2,5.6-0.4,8.3-0.4c1.1,0,1.7-0.4,2-1.4
					c0.9-2.6,2-5.1,2.9-7.6c0.5-1.4,1.3-2,2.8-2.1c6.4-0.3,12.8-0.7,19.2-1.2c1.4-0.1,2.3,0.3,2.9,1.6c1.3,2.5,2.7,5,4.3,7.3
					c0.6,0.9,1.8,1.8,2.8,1.8c2.9,0.1,5.8-0.3,8.6-0.5C169.3,121,167.9,119.4,166.8,117.5z M133.2,106.6c2.5-6.9,4.9-13.5,7.5-20.6
					c3.4,6.7,6.7,13,10,19.5C144.9,105.8,139.3,106.2,133.2,106.6z"/>
			</g>
			<path class="st1" d="M200.9,183.7c-2.7,0-5.7,0.1-8.6,0c-0.7,0-1.5-0.5-1.9-1c-0.9-1.2-1.7-2.5-2.3-3.8c-0.7-1.5-1.1-3-1.7-4.6
				c-0.4-1.3-1.2-1.8-2.6-1.7c-6.7,0.2-13.3,0.3-20,0.4c-1.1,0-1.8,0.4-2.2,1.5c-1.1,2.7-2.3,5.3-3.4,8c-0.4,0.9-0.9,1.3-1.9,1.3
				c-2.7-0.1-5.3,0-8.3,0c0.6-1.4,1.1-2.8,1.7-4.1c5.6-12.7,11.3-25.3,16.9-38c1.2-2.6,2.2-5.2,3.5-7.7c0.5-0.9,1.5-1.9,2.4-2.1
				c1.5-0.2,2.9,0.2,3.8,2C183,148.4,190,163,197,177.5C198,179.6,199.5,181.5,200.9,183.7z M182.8,165.4
				c-3.2-6.9-6.2-13.4-9.4-20.2c-2.9,7-5.7,13.6-8.4,20.2C170.9,165.4,176.7,165.4,182.8,165.4z"/>
			<path class="st1" d="M193,131.6c3.1,0.3,6.3,0.3,9.4,1c1.4,0.3,2.9,2,3.6,3.4c3.2,6.5,6.1,13.1,9.2,19.7c0.1,0.3,0.2,0.5,0.5,0.9
				c1.6-2.4,3.1-4.7,4.6-7c3-4.5,5.9-9,9-13.4c0.5-0.7,1.6-1.5,2.5-1.5c2.8,0,5.6,0.4,8.8,0.6c-0.5,0.7-0.8,1.2-1.2,1.7
				c-6.2,8.4-12.5,16.9-18.6,25.3c-0.7,1-1.3,2.3-1.4,3.4c-0.5,4.8-0.9,9.6-1.3,14.4c-0.1,1.7-1.1,2.8-2.5,3.5
				c-1.7,0.9-4.4,1-6.5,0.3c0.5-5.5,0.9-11,1.5-16.5c0.3-2.6,0-4.9-1.3-7.2c-4.3-8.2-8.4-16.5-12.8-24.7
				C195.7,134.2,194.2,133,193,131.6z"/>
			<path class="st1" d="M173.8,122.9c0-6.7-0.1-12.8,0-19c0.1-9.3,0.4-18.5,0.4-27.8c0-1.4-1.2-2.9-1.8-4.3c3.1,0,6.7,0,10.6,0
				c-0.3,14.4-0.5,28.7-0.8,43.4c7.3,0,14.5,0,21.7,0c0,2.9,0,5.4,0,7.7C193.7,122.9,183.7,122.9,173.8,122.9z"/>
		</g>
	</g>
	<g>
		<path class="st2" d="M229.3,181.1c0,1.7-1.4,3.1-3.1,3.1c-1.8,0-3.2-1.4-3.2-3.1c0-1.7,1.4-3.1,3.2-3.1
			C227.9,178,229.3,179.4,229.3,181.1z M223.8,181.1c0,1.4,1,2.5,2.4,2.5c1.3,0,2.3-1.1,2.3-2.4c0-1.4-1-2.5-2.4-2.5
			C224.8,178.7,223.8,179.8,223.8,181.1z M225.7,182.7H225v-3.1c0.3-0.1,0.7-0.1,1.2-0.1c0.6,0,0.8,0.1,1.1,0.2
			c0.2,0.1,0.3,0.4,0.3,0.7s-0.3,0.6-0.6,0.7l0,0c0.3,0.1,0.5,0.3,0.6,0.8s0.1,0.7,0.2,0.8H227c-0.1-0.1-0.1-0.4-0.2-0.7
			c-0.1-0.3-0.2-0.5-0.6-0.5h-0.3v1.2H225.7z M225.7,181h0.3c0.4,0,0.7-0.1,0.7-0.4c0-0.3-0.2-0.5-0.7-0.5c-0.2,0-0.3,0-0.4,0
			L225.7,181L225.7,181z"/>
	</g>
</g>
</svg>
