<?xml version="1.0" encoding="utf-8"?>
<!-- Generator: Adobe Illustrator 22.0.0, SVG Export Plug-In . SVG Version: 6.00 Build 0)  -->
<svg version="1.1" id="Layer_1" xmlns="http://www.w3.org/2000/svg" xmlns:xlink="http://www.w3.org/1999/xlink" x="0px" y="0px"
	 viewBox="0 0 342.5 72.5" style="enable-background:new 0 0 342.5 72.5;" xml:space="preserve">
<style type="text/css">
	.st0{fill-rule:evenodd;clip-rule:evenodd;fill:#221F1F;}
</style>
<path class="st0" d="M30.1,37.5c0.5,0.3,1.1,0.5,1.9,0.7c0.8,0.2,1.8,0.2,2.9,0.2c1.1,0,2-0.1,2.8-0.2c0.7-0.2,1.3-0.4,1.8-0.7
	c0.5-0.3,0.8-0.6,0.9-0.9c0.1-0.3,0.2-0.7,0.2-1.2v-0.1h-4.8v0.6c0,0.4-0.1,0.7-0.2,0.9c-0.1,0.2-0.4,0.2-0.8,0.2
	c-0.3,0-0.5-0.1-0.7-0.2C34,36.6,34,36.4,34,36v-1.9h6.6v-1.2c0-0.8-0.2-1.5-0.6-2c-0.4-0.5-1-0.8-2-1.1c-0.9-0.3-2.1-0.4-3.5-0.4
	c-1.2,0-2.2,0.1-3.1,0.4c-0.9,0.2-1.5,0.6-1.9,1c-0.4,0.4-0.6,1-0.6,1.8v2.6c0,0.6,0.1,1.1,0.3,1.5C29.3,37,29.6,37.3,30.1,37.5
	 M34,32c0-0.5,0-0.8,0.1-0.9c0.1-0.1,0.3-0.2,0.7-0.2c0.3,0,0.5,0.1,0.6,0.2c0.1,0.1,0.1,0.4,0.1,0.9v0.7H34V32z M20.6,32.1
	c0-0.4,0.1-0.2,0.2-0.4c0.1-0.2,0.3-0.2,0.7-0.2c0.3,0,0.6,0.1,0.7,0.2c0.1,0.1,0.2,0,0.2,0.5v6.1h5.1v-6c0-0.8-0.1-1.4-0.2-1.7
	C27,30.3,26.6,30,26,29.7c-0.6-0.2-1.4-0.4-2.3-0.4c-0.6,0-1.1,0.1-1.6,0.2c-0.5,0.1-1,0.3-1.4,0.5v-2.4h-5.1v10.6h5.1V32.1z
	 M127.4,15.2c-1.8,0.1-3.5,0.3-5.2,0.8c-3.5,0.9-6.7,2.5-9.4,4.9c-2.9,2.6-4.9,6.1-6.6,9.6l-4.7,10.1c-0.9,2-1.9,4.1-2.5,6.3
	c-0.3,1.2-0.5,2.4-0.4,3.6l0.1,0.6c0.2,0.8,0.4,1.6,0.9,2.3l0.4,0.5c0.5,0.6,1.1,1.1,1.8,1.5l0.6,0.3c0.9,0.4,1.8,0.7,2.8,0.9
	c2.4,0.5,4.8,0.6,7.2,0.5c2.2-0.1,4.3-0.4,6.4-0.9c1.7-0.5,3.4-1.1,4.9-1.9c2.4-1.3,4.6-3,6.4-5c0.3-0.3,0.5-0.6,0.8-1
	c1.5-2,2.6-4.3,3.7-6.5c1.7-3.6,3.4-7.3,5.1-10.9c0.7-1.5,1.4-3,1.8-4.6c0.2-0.6,0.3-1.2,0.4-1.8c0.1-0.6,0.1-1.2,0-1.7
	c0-0.3-0.1-0.6-0.1-0.9c-0.2-0.8-0.4-1.5-0.8-2.3c-0.5-0.8-1.1-1.4-1.8-2l-0.6-0.4c-1.1-0.7-2.3-1.2-3.6-1.5
	C132.5,15.2,129.9,15.1,127.4,15.2 M127.4,26.9c-0.1,0.8-0.4,1.5-0.7,2.2c-0.2,0.4-0.4,0.8-0.5,1.3L119,46.2
	c-0.4,0.9-0.8,1.8-1.4,2.6c-0.3,0.4-0.6,0.7-1,1c-0.9,0.6-2.2,0.8-3.2,0.4c-0.4-0.2-0.7-0.4-0.9-0.7c-0.6-0.9-0.2-2.1,0.1-3
	c0.2-0.6,0.4-1.1,0.7-1.6l7-15.6c0.5-1.1,1.1-2.3,1.8-3.3c0.3-0.4,0.6-0.7,1-1c0.9-0.5,2-0.7,3-0.3C127.1,25,127.5,25.8,127.4,26.9
	 M7.9,35.6c0,0.9,0,1.4,0.1,1.6c0.1,0.2,0.3,0.4,0.7,0.6c0.4,0.2,0.8,0.3,1.3,0.3c0.5,0.1,1.3,0.1,2.5,0.1h2.1v-1.4
	c-0.8,0-1.3,0-1.4-0.1c-0.1-0.1-0.2-0.4-0.2-1v-4.2h1.4v-1.9H13v-1.4H7.9v1.4H6.8v1.9h1.1V35.6z M175,41.3c-0.8,1.8-1.7,3.7-2.1,5.7
	c-0.2,0.8-0.3,1.6-0.3,2.4c0.1,1,0.2,1.8,0.6,2.7c0.1,0.3,0.3,0.6,0.4,0.9c0.3,0.5,0.7,0.9,1.1,1.3c0.4,0.3,0.7,0.6,1.1,0.9
	c0.7,0.4,1.3,0.7,2.1,1c1.5,0.6,3.1,0.8,4.6,1c3.1,0.3,6.2,0.1,9.2-0.5c1.1-0.2,2.2-0.6,3.2-1c1.8-0.7,3.4-1.6,5-2.7
	c1.6-1.1,3.1-2.3,4.3-3.8c1.6-1.9,2.8-4.3,3.9-6.5l0.7-2.6h-13.2l-1.9,4.1c-0.5,1-1,1.9-1.6,2.8c-0.2,0.2-0.3,0.4-0.6,0.5
	c-0.7,0.4-1.5,0.8-2.3,0.9c-0.6,0-1.3,0-2-0.1c-0.1,0-0.2-0.1-0.3-0.1c0-0.1,0.1-0.3,0.1-0.4c0.2-0.6,0.5-1.2,0.7-1.8l3.6-7.8h18.8
	c1.1-2.4,2.3-4.7,3.3-7.1c1-2.3,1.9-4.7,2-7.3c0-0.6,0-1.2-0.2-1.8c-0.1-0.4-0.2-0.8-0.4-1.3c-0.2-0.4-0.4-0.8-0.6-1.2
	c-0.3-0.4-0.5-0.7-0.9-1c-0.6-0.5-1.2-1-1.9-1.4c-0.2-0.1-0.5-0.2-0.7-0.4c-2.7-1.2-5.8-1.5-8.7-1.4c-4.2,0.1-8.5,1.1-12.2,3.1
	c-1.2,0.7-2.4,1.5-3.4,2.4c-1.1,0.9-2,2-2.9,3.1c-1.4,1.8-2.5,3.8-3.4,5.8L175,41.3z M197.4,25.7c0.5-0.7,1-1.5,1.7-2
	c0.8-0.5,1.8-0.6,2.8-0.5c0.5,0.1,1,0.2,1.2,0.7c0.2,0.5,0,0.9-0.1,1.4c-0.3,0.7-0.6,1.4-1,2.1c-0.7,1.3-1.5,2.7-2.2,4h-5.6
	C195.2,29.5,196.2,27.6,197.4,25.7 M146.2,56.6l12.3-26.3c0.6-1.3,1.3-2.7,2-4c0.2-0.3,0.4-0.7,0.7-1c0.5-0.6,1.2-0.5,1.9-0.5
	c0.4,0,0.8,0,1.1,0.2l-0.1,0.2c-0.3,1-0.8,2-1.2,2.9l-13.4,28.5H166l12.8-27.2c0.8-1.6,1.5-3.3,2.1-5c0.2-0.7,0.5-1.4,0.6-2.1
	c0.2-0.9,0.2-1.7,0-2.6l-0.2-0.6l-0.1-0.3c-0.2-0.4-0.4-0.7-0.7-1.1c-0.4-0.4-0.8-0.8-1.3-1.1c-0.3-0.2-0.6-0.3-1-0.5
	c-2-0.7-4.2-0.8-6.3-0.4c-1.7,0.3-3.4,0.8-5,1.4c-0.7,0.2-1.4,0.5-2.1,0.7l0.9-1.6h-16.8l-19,40.4H146.2z M94.6,49.1h-32l68.5-42.6
	L33.7,6.6v18.7l32.5,0L2.9,66.9l91.6,0L94.6,49.1z M274.8,17.5c-0.6,0-1.3,0.3-2.1,0.8c-0.8,0.5-1.7,2-2.6,4.4l-3.7,9.8
	c-0.8,2.2-1.1,3.5-0.7,4.1c0.4,0.5,0.9,0.8,1.5,0.8c0.9,0,1.7-0.3,2.4-1c0.7-0.7,1.4-1.9,2.1-3.9l3.6-9.5c0.9-2.3,1.2-3.8,1.1-4.5
	C276.2,17.9,275.7,17.5,274.8,17.5 M0,72.5h342.5V0H0V72.5z M217.9,69.3H2.9V2.9h215V69.3z M240.1,49c-1.8,1.2-4,1.8-6.5,1.8
	c-2.5,0-4.6-0.5-6.4-1.5c-1.8-1-3.1-2.5-4-4.5c-0.9-2-1.3-4.2-1.3-6.5c0-2.6,0.5-5,1.5-7.2c1-2.2,2.4-3.9,4.1-5
	c1.7-1.1,3.7-1.7,6-1.7c1.9,0,3.6,0.5,5.1,1.3c1.5,0.9,2.6,2.2,3.4,3.8c0.8,1.6,1.2,3.5,1.2,5.4c0,2.3-0.6,4.4-1.8,6.3
	c-1.5,2.4-3.4,3.6-5.7,3.6c-0.6,0-1.1-0.1-1.4-0.4c-0.3-0.3-0.5-0.7-0.6-1.2c-0.9,1-1.9,1.6-3.1,1.6c-1.2,0-2.3-0.5-3.1-1.6
	c-0.8-1-1.2-2.4-1.2-4.2c0-2.2,0.5-4.1,1.5-5.9c1.2-2.2,2.7-3.2,4.6-3.2c1.3,0,2.3,0.6,3,1.9l0.3-1.5h3l-1.7,9.8
	c-0.1,0.6-0.2,1-0.2,1.2c0,0.2,0,0.4,0.1,0.5c0.1,0.1,0.2,0.2,0.3,0.2c0.4,0,0.8-0.3,1.4-0.8c0.8-0.7,1.4-1.6,1.9-2.8
	c0.5-1.2,0.7-2.4,0.7-3.6c0-2.2-0.7-4.1-2-5.6c-1.3-1.5-3.2-2.3-5.6-2.3c-2,0-3.8,0.5-5.2,1.5c-1.4,1-2.5,2.4-3.2,4.3
	c-0.7,1.8-1.1,3.7-1.1,5.7c0,1.9,0.4,3.7,1.2,5.3c0.8,1.6,1.9,2.7,3.4,3.5c1.4,0.7,3.1,1.1,5,1.1c1.8,0,3.3-0.3,4.6-0.9
	c1.3-0.6,2.3-1.5,3.1-2.7h2.4C242.8,46.4,241.7,47.9,240.1,49 M282.2,39.8c-2.4,6.2-4,10.4-5,12.5c-1,2.1-2.5,4.1-4.5,6
	c-2.1,1.9-4.4,3.3-7.1,4.2c-2.7,0.9-5.5,1.4-8.5,1.4c-3.7,0-6.6-0.6-8.5-1.8c-1.9-1.2-3-2.9-3.2-5c-0.2-2.2,0.3-4.9,1.5-8.1h13.2
	c-0.9,2.4-1.5,4-1.7,4.6c-0.2,0.6-0.1,1.2,0.2,1.6c0.3,0.4,0.9,0.6,1.7,0.6c0.7,0,1.3-0.2,1.9-0.6c0.6-0.4,1-0.9,1.3-1.6
	c0.3-0.6,0.8-1.9,1.6-3.9l3.1-8.3c-1.2,1.4-2.6,2.4-4.1,3.1c-1.6,0.7-3.3,1.1-5.3,1.1c-2.4,0-4.3-0.6-5.7-1.9
	c-1.4-1.3-2-2.8-1.8-4.6c0.2-1.8,0.9-4.3,2-7.3l1.6-4.2c1.4-3.7,2.6-6.4,3.5-8.2c1-1.8,2.4-3.4,4.2-5c1.8-1.5,3.9-2.7,6.4-3.5
	c2.5-0.8,5.2-1.3,8-1.3c3.5,0,6.3,0.5,8.2,1.5c1.9,1,3.1,2.4,3.7,4.2c0.6,1.8,0.6,3.7,0,5.7c-0.6,2-1.9,5.9-4.1,11.6L282.2,39.8z
	 M285.3,62.8l10.6-28c1.5-4,2.3-6.5,2.5-7.3c0.1-0.8-0.2-1.4-0.9-1.9c-0.7-0.4-2.6-0.6-5.7-0.6h-1.3l2.3-6.1
	c6.9-1.4,12.8-4.1,17.8-8.4h7.8l-19.8,52.3H285.3z M329.4,48.8l-21.3,0l1.9-5.1h21.7L329.4,48.8z M337.6,16.7
	c-0.6,1.4-1.2,2.5-1.9,3.1c-0.7,0.6-1.7,1.2-2.9,1.8c0.9,0.3,1.5,0.9,1.7,1.6c0.2,0.8-0.2,2.5-1.3,5.3c-0.8,2-1.7,3.6-2.7,4.8
	c-1,1.1-2.2,2-3.6,2.6c-1.5,0.6-3.2,0.9-5.1,0.9c-2.2,0-3.8-0.3-4.8-1c-1-0.7-1.5-1.5-1.5-2.5c0-1,0.5-2.7,1.5-5.2l0.8-2h6.9
	l-1.7,4.2c-0.4,1.1-0.6,1.8-0.6,2.1c0,0.3,0.3,0.5,0.8,0.5c0.5,0,1-0.2,1.3-0.6c0.3-0.4,0.8-1.4,1.5-3l0.7-1.8
	c0.4-1,0.6-1.7,0.5-2.2c-0.1-0.5-0.3-0.8-0.7-0.9c-0.4-0.1-1.3-0.2-2.6-0.2l1.5-3.7c1.6,0,2.7-0.1,3.1-0.2c0.4-0.1,0.8-0.4,1.1-0.8
	c0.3-0.4,0.7-1,1-1.8l0.6-1.4c0.4-0.9,0.5-1.5,0.4-1.8c-0.1-0.3-0.3-0.4-0.8-0.4c-0.5,0-0.9,0.2-1.2,0.5c-0.3,0.3-0.6,0.9-1,1.9
	l-0.8,2.1h-6.9l0.9-2.2c1-2.5,2.2-4.1,3.8-5c1.6-0.9,3.7-1.3,6.3-1.3c3.3,0,5.3,0.6,6,1.8C338.5,12.9,338.4,14.6,337.6,16.7
	 M232.4,32.4c-0.6,0-1.2,0.3-1.8,0.9c-0.6,0.6-1,1.5-1.2,2.6c-0.3,1.1-0.4,2.1-0.4,3c0,1.2,0.2,2,0.6,2.6c0.4,0.5,0.9,0.8,1.4,0.8
	c0.4,0,0.8-0.1,1.2-0.4c0.3-0.2,0.6-0.5,0.8-0.9c0.4-0.6,0.7-1.4,1-2.4c0.3-1.1,0.4-2.1,0.4-3c0-1-0.2-1.8-0.6-2.4
	C233.5,32.7,233,32.4,232.4,32.4"/>
</svg>
