<?xml version="1.0" encoding="utf-8"?>
<!-- Generator: Adobe Illustrator 22.0.0, SVG Export Plug-In . SVG Version: 6.00 Build 0)  -->
<svg version="1.1" id="mark" xmlns="http://www.w3.org/2000/svg" xmlns:xlink="http://www.w3.org/1999/xlink" x="0px" y="0px"
	 viewBox="0 0 558.3 100.1" style="enable-background:new 0 0 558.3 100.1;" xml:space="preserve">
<style type="text/css">
	.Arched_x0020_Green{fill:url(#SVGID_1_);stroke:#FFFFFF;stroke-width:0.25;stroke-miterlimit:1;}
</style>
<linearGradient id="SVGID_1_" gradientUnits="userSpaceOnUse" x1="-117.2134" y1="380.603" x2="-116.5063" y2="379.8959">
	<stop  offset="0" style="stop-color:#20AC4B"/>
	<stop  offset="0.9831" style="stop-color:#19361A"/>
</linearGradient>
<g>
	<g>
		<path d="M28.2,25c0.1,0.1,0.1,0.1,0.2,0.2C28.3,25.1,28.3,25,28.2,25z"/>
		<path d="M28.1,24.8c0,0,0.1,0.1,0.1,0.2C28.2,24.9,28.1,24.9,28.1,24.8z"/>
	</g>
	<g>
		<polygon points="28.7,25.5 28.7,25.5 28.7,25.5 		"/>
		<polygon points="28.7,25.5 28.7,25.5 28.7,25.5 		"/>
		<polygon points="28.7,25.5 28.7,25.5 28.7,25.5 28.7,25.5 		"/>
		<polygon points="28.7,25.5 28.7,25.5 28.7,25.5 		"/>
	</g>
	<g>
		<g>
			<path d="M401.3,16.3c-3.8,0-6.9-3-6.9-6.7c0-3.7,3.1-6.7,6.9-6.7c3.7,0,6.8,2.9,6.8,6.7C408.1,13.3,405,16.3,401.3,16.3z"/>
		</g>
		<g>
			<path d="M0,74.1V5.6h11.1v68.6H0z"/>
			<path d="M33,75.2c-3.8,0-7.5-0.4-10.7-1l0.3-9.2c3.2,0.9,7.1,1.6,11,1.6c5.9,0,10-2.5,10-6.7c0-10.2-22.1-4.1-22.1-21.5
				c0-8.7,7.1-15.7,20.8-15.7c2.9,0,6.4,0.4,9.4,0.9l-0.3,8.8c-3-0.9-6.6-1.4-9.9-1.4c-6,0-8.9,2.4-8.9,6.3C32.6,47,55,42,55,58.8
				C55,68.2,46.5,75.2,33,75.2z"/>
			<path d="M65.2,74.1V0H76v74.1H65.2z"/>
			<path d="M116.1,74.1c0-3.2,0.1-6.6,0.5-9.3l-0.1-0.1c-2.4,6-8.7,10.5-16.8,10.5c-8.6,0-14.1-4.9-14.1-12.9
				c0-11.6,11.6-18.3,29.8-18.3v-3.2c0-6.3-2.6-9.5-10.6-9.5c-4.7,0-10.8,1.4-15,4.1l-1-9.3c5-1.9,11.3-3.4,17.8-3.4
				c15.4,0,19.7,6.7,19.7,17.1v20.6c0,4.4,0.1,9.5,0.3,13.8H116.1z M115.4,51.3c-15.8,0-19.3,4.8-19.3,9.1c0,3.8,2.6,6.2,6.9,6.2
				c7.4,0,12.4-7.1,12.4-14.3V51.3z"/>
			<path d="M169.3,74.1V41.6c0-6.3-1.7-10-7.5-10c-7.6,0-13.2,8-13.2,18.1v24.4h-10.9V23.7H148c0,2.6-0.2,7-0.7,9.8l0.1,0.1
				c2.9-6.5,9-11,17.6-11c11.5,0,15,7.2,15,16.2v35.4H169.3z"/>
			<path d="M223.9,74.1c0-2.7,0.2-6.6,0.7-9.5h-0.2c-2.7,6.2-8.6,10.5-16.5,10.5c-12.4,0-18.6-9.1-18.6-23.8
				c0-17.4,10.1-28.5,26.4-28.5c2.4,0,4.9,0.2,7.6,0.4V0h10.8v74.1H223.9z M223.4,32.4c-2.7-0.6-5.4-0.9-8-0.9
				c-8.6,0-14.5,5.3-14.5,18.9c0,10.2,3.1,15.9,10.1,15.9c8,0,12.5-9.6,12.5-18.2V32.4z"/>
			<path d="M259.9,75.2c-5,0-9.9-0.6-13.8-1.6l0.6-10.5c3.9,1.4,9.2,2.5,14.2,2.5c7.5,0,13.6-3.1,13.6-10.6c0-14.4-30-8.3-30-30.5
				c0-11.8,9.2-20,25.2-20c4.1,0,8.2,0.5,12.4,1.2l-0.6,9.8c-4-1.2-8.3-1.9-12.4-1.9c-8.5,0-12.9,4-12.9,9.7c0,13.7,30,8.6,30,30.1
				C286.2,66,276.2,75.2,259.9,75.2z"/>
			<path d="M323,74.1c0-3.2,0.1-6.6,0.5-9.3l-0.1-0.1c-2.4,6-8.7,10.5-16.8,10.5c-8.6,0-14.1-4.9-14.1-12.9
				c0-11.6,11.6-18.3,29.8-18.3v-3.2c0-6.3-2.6-9.5-10.6-9.5c-4.7,0-10.8,1.4-15,4.1l-1-9.3c5-1.9,11.3-3.4,17.8-3.4
				c15.4,0,19.7,6.7,19.7,17.1v20.6c0,4.4,0.1,9.5,0.3,13.8H323z M322.3,51.3c-15.8,0-19.3,4.8-19.3,9.1c0,3.8,2.7,6.2,6.9,6.2
				c7.4,0,12.4-7.1,12.4-14.3V51.3z"/>
			<path d="M368.3,74.1h-11.1l-18.9-50.5h12l9.4,26.7c1.2,3.5,2.3,7,3.2,10.4h0.1c0.8-3.2,1.8-6.7,2.9-10l9.6-27.1h11.7L368.3,74.1z
				"/>
			<path d="M395.6,74.1V23.7h10.9v50.5H395.6z"/>
			<path d="M449.3,74.1V41.6c0-6.3-1.7-10-7.5-10c-7.6,0-13.2,8-13.2,18.1v24.4h-10.9V23.7h10.4c0,2.6-0.2,7-0.7,9.8l0.1,0.1
				c3-6.5,9.1-11,17.6-11c11.5,0,15,7.2,15,16.2v35.4H449.3z"/>
			<path d="M489.3,100.1c-13.2,0-21.4-5.1-21.4-14.8c0-5.7,3.8-10.5,8.1-12.7c-3.1-1.5-5-4.2-5-7.5c0-3.7,2.2-7.1,5.8-8.6
				c-5-2.7-7.5-7.9-7.5-14.2c0-10.7,8.1-19.6,22.5-19.6c3,0,5.6,0.4,8.3,1h17.1v8.5h-7.7c2.1,1.7,3.4,4.8,3.4,8.4
				c0,11-7.6,18.7-21.8,18.7c-1.9,0-4.3-0.2-5.8-0.5c-2,0.8-2.9,2.3-2.9,3.8c0,2.5,2.2,3.5,8.3,3.5h8.6c11,0,17.2,5.2,17.2,14.6
				C516.5,91.5,505.5,100.1,489.3,100.1z M497.9,74.9h-9.4c-0.9,0-1.9,0-2.7-0.1c-3.5,1.9-5.6,5-5.6,8.4c0,5.4,5.1,8.4,12.4,8.4
				c9.5,0,14.7-4.1,14.7-9.6C507.3,77.8,504.3,74.9,497.9,74.9z M491.3,30.7c-7.2,0-11.5,4.4-11.5,10.6c0,6.6,4.1,10.5,11.4,10.5
				c6.8,0,11.3-3.8,11.3-10.3C502.5,34.6,498.3,30.7,491.3,30.7z"/>
			<path d="M536.4,75.2c-3.8,0-7.5-0.4-10.7-1l0.3-9.2c3.2,0.9,7.1,1.6,11,1.6c5.9,0,9.9-2.5,9.9-6.7c0-10.2-22.1-4.1-22.1-21.5
				c0-8.7,7.1-15.7,20.8-15.7c3,0,6.4,0.4,9.5,0.9l-0.3,8.8c-3-0.9-6.6-1.4-9.8-1.4c-6,0-8.9,2.4-8.9,6.3c0,9.8,22.4,4.8,22.4,21.5
				C558.3,68.2,549.9,75.2,536.4,75.2z"/>
		</g>
	</g>
</g>
</svg>
